{
    "manufacturer": "lada",
    "links": [
        "https://www.paruvendu.fr/a/voiture-occasion/lada/divers/1252480955A1KVVOLDZZZ",
        "https://www.paruvendu.fr/a/voiture-occasion/lada/niva/1252745605A1KVVOLDNIV",
        "https://www.paruvendu.fr/a/voiture-occasion/lada/niva/1252716883A1KVVOLDNIV",
        "https://www.paruvendu.fr/a/voiture-occasion/lada/divers/1253409110A1KVVOLDZZZ",
        "https://www.paruvendu.fr/a/voiture-occasion/lada/niva/1253336232A1KVVOLDNIV"
    ]
}