{
    "manufacturer": "lotus",
    "links": [
        "https://www.paruvendu.fr/a/voiture-occasion/lotus/elise/1251954178A1KVVOLOELI",
        "https://www.paruvendu.fr/a/voiture-occasion/lotus/elise/1253086881A1KVVOLOELI",
        "https://www.paruvendu.fr/a/voiture-occasion/lotus/evora/1252913127A1KVVOLOEVO",
        "https://www.paruvendu.fr/a/voiture-occasion/lotus/exige/1251200662A1KVVOLOEXI",
        "https://www.paruvendu.fr/a/voiture-occasion/lotus/evora/1249956737A1KVVOLOEVO",
        "https://www.paruvendu.fr/a/voiture-occasion/lotus/exige/1249110631A1KVVOLOEXI",
        "https://www.paruvendu.fr/a/voiture-occasion/lotus/exige/1251236138A1KVVOLOEXI",
        "https://www.paruvendu.fr/a/voiture-occasion/lotus/elise/1239739134A1KVVOLOELI",
        "https://www.paruvendu.fr/a/voiture-occasion/lotus/evora/1253344201A1KVVOLOEVO",
        "https://www.paruvendu.fr/a/voiture-occasion/lotus/elise/1253337437A1KVVOLOELI",
        "https://www.paruvendu.fr/a/voiture-occasion/lotus/evora/1253114635A1KVVOLOEVO"
    ]
}