{"Asctime": "2021-03-27 18:25:15,921", "Levelname": "WARNING", "Message": "this is a test"}
{"Asctime": "2021-03-27 18:26:37,195", "Levelname": "WARNING", "Message": "this is a test"}
{"Asctime": "2021-03-27 18:26:50,245", "Levelname": "WARNING", "Message": "this is a test"}
