{"Asctime": "2021-04-21 19:43:05,108", "Levelname": "INFO", "Message": "--> Correctly loaded config for database db_scrapers on 172.18.0.2"}
{"Asctime": "2021-04-21 19:45:24,632", "Levelname": "INFO", "Message": "--> Correctly loaded config for database db_scrapers on 172.18.0.2"}
{"Asctime": "2021-04-21 19:47:39,669", "Levelname": "INFO", "Message": "--> Correctly loaded config for database db_scrapers on 172.19.0.1"}
{"Asctime": "2021-04-21 19:47:39,673", "Levelname": "INFO", "Message": "--> Successfully connected to db_scrapers on 172.19.0.1"}
{"Asctime": "2021-04-21 19:47:39,674", "Levelname": "INFO", "Message": "--> Database db_scrapers already exists"}
{"Asctime": "2021-04-21 19:47:39,674", "Levelname": "INFO", "Message": "--> Succesfully created table paru_vendu"}
{"Asctime": "2021-04-21 19:47:39,675", "Levelname": "INFO", "Message": "--> Started listening on queue database exchnage for db_scrapers:paru_vendu"}
{"Asctime": "2021-04-21 19:47:46,927", "Levelname": "INFO", "Message": "--> Scraping https://www.paruvendu.fr/a/voiture-occasion/ferrari/458/1252024999A1KVVOFE458"}
{"Asctime": "2021-04-21 19:47:47,960", "Levelname": "INFO", "Message": "--> Page https://www.paruvendu.fr/a/voiture-occasion/ferrari/458/1252024999A1KVVOFE458 scraped in 1.021535773999858 second"}
{"Asctime": "2021-04-21 19:51:51,866", "Levelname": "INFO", "Message": "--> Correctly loaded config for database db_scrapers on 172.19.0.1"}
{"Asctime": "2021-04-21 19:51:51,870", "Levelname": "INFO", "Message": "--> Successfully connected to db_scrapers on 172.19.0.1"}
{"Asctime": "2021-04-21 19:51:51,871", "Levelname": "INFO", "Message": "--> Database db_scrapers already exists"}
{"Asctime": "2021-04-21 19:51:51,872", "Levelname": "INFO", "Message": "--> Succesfully created table paru_vendu"}
{"Asctime": "2021-04-21 19:51:51,872", "Levelname": "INFO", "Message": "--> Started listening on queue database exchnage for db_scrapers:paru_vendu"}
{"Asctime": "2021-04-21 19:51:55,903", "Levelname": "INFO", "Message": "--> Scraping https://www.paruvendu.fr/a/voiture-occasion/ferrari/458/1252024999A1KVVOFE458"}
{"Asctime": "2021-04-21 19:51:56,674", "Levelname": "INFO", "Message": "--> Page https://www.paruvendu.fr/a/voiture-occasion/ferrari/458/1252024999A1KVVOFE458 scraped in 0.7599833499998567 second"}
{"Asctime": "2021-04-21 19:52:48,367", "Levelname": "INFO", "Message": "--> Correctly loaded config for database db_scrapers on 172.19.0.1"}
{"Asctime": "2021-04-21 19:52:48,370", "Levelname": "INFO", "Message": "--> Successfully connected to db_scrapers on 172.19.0.1"}
{"Asctime": "2021-04-21 19:52:48,370", "Levelname": "INFO", "Message": "--> Database db_scrapers already exists"}
{"Asctime": "2021-04-21 19:52:48,371", "Levelname": "INFO", "Message": "--> Succesfully created table paru_vendu"}
{"Asctime": "2021-04-21 19:52:48,371", "Levelname": "INFO", "Message": "--> Started listening on queue database exchnage for db_scrapers:paru_vendu"}
{"Asctime": "2021-04-21 19:52:52,402", "Levelname": "INFO", "Message": "--> Scraping https://www.paruvendu.fr/a/voiture-occasion/ferrari/458/1252024999A1KVVOFE458"}
{"Asctime": "2021-04-21 19:52:53,290", "Levelname": "INFO", "Message": "--> Page https://www.paruvendu.fr/a/voiture-occasion/ferrari/458/1252024999A1KVVOFE458 scraped in 0.8771766529998786 second"}
{"Asctime": "2021-04-21 19:54:14,983", "Levelname": "INFO", "Message": "--> Correctly loaded config for database db_scrapers on 172.19.0.1"}
{"Asctime": "2021-04-21 19:54:14,986", "Levelname": "INFO", "Message": "--> Successfully connected to db_scrapers on 172.19.0.1"}
{"Asctime": "2021-04-21 19:54:14,987", "Levelname": "INFO", "Message": "--> Database db_scrapers already exists"}
{"Asctime": "2021-04-21 19:54:14,987", "Levelname": "INFO", "Message": "--> Succesfully created table paru_vendu"}
{"Asctime": "2021-04-21 19:54:14,988", "Levelname": "INFO", "Message": "--> Started listening on queue database exchnage for db_scrapers:paru_vendu"}
{"Asctime": "2021-04-21 19:54:18,002", "Levelname": "INFO", "Message": "--> Scraping https://www.paruvendu.fr/a/voiture-occasion/ferrari/458/1252024999A1KVVOFE458"}
{"Asctime": "2021-04-21 19:54:19,464", "Levelname": "INFO", "Message": "--> Page https://www.paruvendu.fr/a/voiture-occasion/ferrari/458/1252024999A1KVVOFE458 scraped in 1.451270101999853 second"}
{"Asctime": "2021-04-21 19:54:53,581", "Levelname": "INFO", "Message": "--> Correctly loaded config for database db_scrapers on 172.19.0.1"}
{"Asctime": "2021-04-21 19:54:53,583", "Levelname": "INFO", "Message": "--> Successfully connected to db_scrapers on 172.19.0.1"}
{"Asctime": "2021-04-21 19:54:53,584", "Levelname": "INFO", "Message": "--> Database db_scrapers already exists"}
{"Asctime": "2021-04-21 19:54:53,584", "Levelname": "INFO", "Message": "--> Succesfully created table paru_vendu"}
{"Asctime": "2021-04-21 19:54:53,584", "Levelname": "INFO", "Message": "--> Started listening on queue database exchnage for db_scrapers:paru_vendu"}
{"Asctime": "2021-04-21 19:54:56,619", "Levelname": "INFO", "Message": "--> Scraping https://www.paruvendu.fr/a/voiture-occasion/ferrari/458/1252024999A1KVVOFE458"}
{"Asctime": "2021-04-21 19:54:57,803", "Levelname": "INFO", "Message": "--> Page https://www.paruvendu.fr/a/voiture-occasion/ferrari/458/1252024999A1KVVOFE458 scraped in 1.1729342670000733 second"}
{"Asctime": "2021-04-21 19:55:26,222", "Levelname": "INFO", "Message": "--> Correctly loaded config for database db_scrapers on 172.19.0.1"}
{"Asctime": "2021-04-21 19:55:26,224", "Levelname": "INFO", "Message": "--> Successfully connected to db_scrapers on 172.19.0.1"}
{"Asctime": "2021-04-21 19:55:26,224", "Levelname": "INFO", "Message": "--> Database db_scrapers already exists"}
{"Asctime": "2021-04-21 19:55:26,225", "Levelname": "INFO", "Message": "--> Succesfully created table paru_vendu"}
{"Asctime": "2021-04-21 19:55:26,225", "Levelname": "INFO", "Message": "--> Started listening on queue database exchnage for db_scrapers:paru_vendu"}
{"Asctime": "2021-04-21 19:55:32,258", "Levelname": "INFO", "Message": "--> Scraping https://www.paruvendu.fr/a/voiture-occasion/ferrari/458/1252024999A1KVVOFE458"}
{"Asctime": "2021-04-21 19:55:33,290", "Levelname": "INFO", "Message": "--> Page https://www.paruvendu.fr/a/voiture-occasion/ferrari/458/1252024999A1KVVOFE458 scraped in 1.0215201500000148 second"}
{"Asctime": "2021-04-21 19:56:39,591", "Levelname": "INFO", "Message": "--> Correctly loaded config for database db_scrapers on 172.19.0.1"}
{"Asctime": "2021-04-21 19:56:39,595", "Levelname": "INFO", "Message": "--> Successfully connected to db_scrapers on 172.19.0.1"}
{"Asctime": "2021-04-21 19:56:39,596", "Levelname": "INFO", "Message": "--> Database db_scrapers already exists"}
{"Asctime": "2021-04-21 19:56:39,597", "Levelname": "INFO", "Message": "--> Succesfully created table paru_vendu"}
{"Asctime": "2021-04-21 19:56:39,597", "Levelname": "INFO", "Message": "--> Started listening on queue database exchnage for db_scrapers:paru_vendu"}
{"Asctime": "2021-04-21 19:56:44,623", "Levelname": "INFO", "Message": "--> Scraping https://www.paruvendu.fr/a/voiture-occasion/ferrari/458/1252024999A1KVVOFE458"}
{"Asctime": "2021-04-21 19:56:45,387", "Levelname": "ERROR", "Message": "--\nTraceback (most recent call last):\n  File \"/home/momor/Documents/Git_work/car-rating-prediction/scraper/lib/scrapers/paru_vendu.py\", line 269, in scrap_car_page\n    soup.find(\"h1\", {\"class\": \"auto2012_dettophead1txt1\"})\nTypeError: 'str' object is not callable"}
{"Asctime": "2021-04-21 19:56:45,451", "Levelname": "INFO", "Message": "--> Page https://www.paruvendu.fr/a/voiture-occasion/ferrari/458/1252024999A1KVVOFE458 scraped in 0.8177336140001898 second"}
{"Asctime": "2021-04-21 19:57:09,200", "Levelname": "INFO", "Message": "--> Correctly loaded config for database db_scrapers on 172.19.0.1"}
{"Asctime": "2021-04-21 19:57:09,204", "Levelname": "INFO", "Message": "--> Successfully connected to db_scrapers on 172.19.0.1"}
{"Asctime": "2021-04-21 19:57:09,205", "Levelname": "INFO", "Message": "--> Database db_scrapers already exists"}
{"Asctime": "2021-04-21 19:57:09,206", "Levelname": "INFO", "Message": "--> Succesfully created table paru_vendu"}
{"Asctime": "2021-04-21 19:57:09,206", "Levelname": "INFO", "Message": "--> Started listening on queue database exchnage for db_scrapers:paru_vendu"}
{"Asctime": "2021-04-21 19:57:11,225", "Levelname": "INFO", "Message": "--> Scraping https://www.paruvendu.fr/a/voiture-occasion/ferrari/458/1252024999A1KVVOFE458"}
{"Asctime": "2021-04-21 19:57:11,998", "Levelname": "INFO", "Message": "--> Page https://www.paruvendu.fr/a/voiture-occasion/ferrari/458/1252024999A1KVVOFE458 scraped in 0.762784050999926 second"}
{"Asctime": "2021-04-21 19:58:04,390", "Levelname": "INFO", "Message": "--> Correctly loaded config for database db_scrapers on 172.19.0.1"}
{"Asctime": "2021-04-21 19:58:04,393", "Levelname": "INFO", "Message": "--> Successfully connected to db_scrapers on 172.19.0.1"}
{"Asctime": "2021-04-21 19:58:04,394", "Levelname": "INFO", "Message": "--> Database db_scrapers already exists"}
{"Asctime": "2021-04-21 19:58:04,394", "Levelname": "INFO", "Message": "--> Succesfully created table paru_vendu"}
{"Asctime": "2021-04-21 19:58:04,394", "Levelname": "INFO", "Message": "--> Started listening on queue database exchnage for db_scrapers:paru_vendu"}
{"Asctime": "2021-04-21 19:58:09,416", "Levelname": "INFO", "Message": "--> Scraping https://www.paruvendu.fr/a/voiture-occasion/ferrari/458/1252024999A1KVVOFE458"}
{"Asctime": "2021-04-21 19:58:10,269", "Levelname": "INFO", "Message": "--> Page https://www.paruvendu.fr/a/voiture-occasion/ferrari/458/1252024999A1KVVOFE458 scraped in 0.8421041830001741 second"}
{"Asctime": "2021-04-21 21:55:00,786", "Levelname": "INFO", "Message": "--> Correctly loaded config for database db_scrapers on 172.19.0.1"}
{"Asctime": "2021-04-21 21:55:00,789", "Levelname": "INFO", "Message": "--> Successfully connected to db_scrapers on 172.19.0.1"}
{"Asctime": "2021-04-21 21:55:00,790", "Levelname": "INFO", "Message": "--> Database db_scrapers already exists"}
{"Asctime": "2021-04-21 21:55:00,790", "Levelname": "INFO", "Message": "--> Succesfully created table paru_vendu"}
{"Asctime": "2021-04-21 21:55:00,791", "Levelname": "INFO", "Message": "--> Started listening on queue database exchnage for db_scrapers:paru_vendu"}
{"Asctime": "2021-04-21 21:56:53,775", "Levelname": "INFO", "Message": "--> Correctly loaded config for database db_scrapers on 172.19.0.1"}
{"Asctime": "2021-04-21 21:56:53,778", "Levelname": "INFO", "Message": "--> Successfully connected to db_scrapers on 172.19.0.1"}
{"Asctime": "2021-04-21 21:56:53,779", "Levelname": "INFO", "Message": "--> Database db_scrapers already exists"}
{"Asctime": "2021-04-21 21:56:53,780", "Levelname": "INFO", "Message": "--> Succesfully created table paru_vendu"}
{"Asctime": "2021-04-21 21:56:53,781", "Levelname": "INFO", "Message": "--> Started listening on queue database exchnage for db_scrapers:paru_vendu"}
{"Asctime": "2021-04-21 21:59:11,575", "Levelname": "INFO", "Message": "--> Correctly loaded config for database db_scrapers on 172.19.0.1"}
{"Asctime": "2021-04-21 21:59:11,578", "Levelname": "INFO", "Message": "--> Successfully connected to db_scrapers on 172.19.0.1"}
{"Asctime": "2021-04-21 21:59:11,578", "Levelname": "INFO", "Message": "--> Database db_scrapers already exists"}
{"Asctime": "2021-04-21 21:59:11,579", "Levelname": "INFO", "Message": "--> Succesfully created table paru_vendu"}
{"Asctime": "2021-04-21 21:59:11,579", "Levelname": "INFO", "Message": "--> Started listening on queue database exchnage for db_scrapers:paru_vendu"}
{"Asctime": "2021-04-21 22:07:55,393", "Levelname": "INFO", "Message": "--> Correctly loaded config for database db_scrapers on 172.19.0.1"}
{"Asctime": "2021-04-21 22:07:55,396", "Levelname": "INFO", "Message": "--> Successfully connected to db_scrapers on 172.19.0.1"}
{"Asctime": "2021-04-21 22:07:55,397", "Levelname": "INFO", "Message": "--> Database db_scrapers already exists"}
{"Asctime": "2021-04-21 22:07:55,397", "Levelname": "INFO", "Message": "--> Succesfully created table paru_vendu"}
{"Asctime": "2021-04-21 22:07:55,397", "Levelname": "INFO", "Message": "--> Started listening on queue database exchnage for db_scrapers:paru_vendu"}
{"Asctime": "2021-04-21 22:09:37,846", "Levelname": "INFO", "Message": "--> Correctly loaded config for database db_scrapers on 172.19.0.1"}
{"Asctime": "2021-04-21 22:09:37,850", "Levelname": "INFO", "Message": "--> Successfully connected to db_scrapers on 172.19.0.1"}
{"Asctime": "2021-04-21 22:09:37,850", "Levelname": "INFO", "Message": "--> Database db_scrapers already exists"}
{"Asctime": "2021-04-21 22:09:37,851", "Levelname": "INFO", "Message": "--> Succesfully created table paru_vendu"}
{"Asctime": "2021-04-21 22:09:37,851", "Levelname": "INFO", "Message": "--> Started listening on queue database exchnage for db_scrapers:paru_vendu"}
{"Asctime": "2021-04-21 22:09:56,199", "Levelname": "INFO", "Message": "--> Correctly loaded config for database db_scrapers on 172.19.0.1"}
{"Asctime": "2021-04-21 22:09:56,202", "Levelname": "INFO", "Message": "--> Successfully connected to db_scrapers on 172.19.0.1"}
{"Asctime": "2021-04-21 22:09:56,203", "Levelname": "INFO", "Message": "--> Database db_scrapers already exists"}
{"Asctime": "2021-04-21 22:09:56,203", "Levelname": "INFO", "Message": "--> Succesfully created table paru_vendu"}
{"Asctime": "2021-04-21 22:09:56,204", "Levelname": "INFO", "Message": "--> Started listening on queue database exchnage for db_scrapers:paru_vendu"}
{"Asctime": "2021-04-21 22:10:35,413", "Levelname": "INFO", "Message": "--> Correctly loaded config for database db_scrapers on 172.19.0.1"}
{"Asctime": "2021-04-21 22:10:35,417", "Levelname": "INFO", "Message": "--> Successfully connected to db_scrapers on 172.19.0.1"}
{"Asctime": "2021-04-21 22:10:35,417", "Levelname": "INFO", "Message": "--> Database db_scrapers already exists"}
{"Asctime": "2021-04-21 22:10:35,418", "Levelname": "INFO", "Message": "--> Succesfully created table paru_vendu"}
{"Asctime": "2021-04-21 22:10:35,418", "Levelname": "INFO", "Message": "--> Started listening on queue database exchnage for db_scrapers:paru_vendu"}
{"Asctime": "2021-04-21 22:10:41,441", "Levelname": "INFO", "Message": "--> Scraping https://www.paruvendu.fr/a/voiture-occasion/ferrari/458/1252024999A1KVVOFE458"}
{"Asctime": "2021-04-21 22:10:42,454", "Levelname": "INFO", "Message": "--> Page https://www.paruvendu.fr/a/voiture-occasion/ferrari/458/1252024999A1KVVOFE458 scraped in 1.0026823190000869 second"}
{"Asctime": "2021-04-21 22:17:56,609", "Levelname": "INFO", "Message": "--> Correctly loaded config for database db_scrapers on 172.19.0.1"}
{"Asctime": "2021-04-21 22:17:56,611", "Levelname": "INFO", "Message": "--> Successfully connected to db_scrapers on 172.19.0.1"}
{"Asctime": "2021-04-21 22:17:56,611", "Levelname": "INFO", "Message": "--> Database db_scrapers already exists"}
{"Asctime": "2021-04-21 22:17:56,612", "Levelname": "INFO", "Message": "--> Succesfully created table paru_vendu"}
{"Asctime": "2021-04-21 22:17:56,612", "Levelname": "INFO", "Message": "--> Started listening on queue database exchnage for db_scrapers:paru_vendu"}
{"Asctime": "2021-04-21 22:18:00,647", "Levelname": "INFO", "Message": "--> Scraping https://www.paruvendu.fr/a/voiture-occasion/ferrari/458/1252024999A1KVVOFE458"}
{"Asctime": "2021-04-21 22:18:01,816", "Levelname": "INFO", "Message": "--> Page https://www.paruvendu.fr/a/voiture-occasion/ferrari/458/1252024999A1KVVOFE458 scraped in 1.1589937400003691 second"}
{"Asctime": "2021-04-21 22:24:54,963", "Levelname": "INFO", "Message": "--> Correctly loaded config for database db_scrapers on 172.19.0.1"}
{"Asctime": "2021-04-21 22:24:54,966", "Levelname": "INFO", "Message": "--> Successfully connected to db_scrapers on 172.19.0.1"}
{"Asctime": "2021-04-21 22:24:54,967", "Levelname": "INFO", "Message": "--> Database db_scrapers already exists"}
{"Asctime": "2021-04-21 22:24:54,968", "Levelname": "INFO", "Message": "--> Succesfully created table paru_vendu"}
{"Asctime": "2021-04-21 22:24:54,968", "Levelname": "INFO", "Message": "--> Started listening on queue database exchnage for db_scrapers:paru_vendu"}
{"Asctime": "2021-04-21 22:24:58,008", "Levelname": "INFO", "Message": "--> Scraping https://www.paruvendu.fr/a/voiture-occasion/ferrari/458/1252024999A1KVVOFE458"}
{"Asctime": "2021-04-21 22:24:59,072", "Levelname": "INFO", "Message": "--> Page https://www.paruvendu.fr/a/voiture-occasion/ferrari/458/1252024999A1KVVOFE458 scraped in 1.0541166559996782 second"}
{"Asctime": "2021-04-21 22:25:41,099", "Levelname": "INFO", "Message": "--> Correctly loaded config for database db_scrapers on 172.19.0.1"}
{"Asctime": "2021-04-21 22:25:41,101", "Levelname": "INFO", "Message": "--> Successfully connected to db_scrapers on 172.19.0.1"}
{"Asctime": "2021-04-21 22:25:41,101", "Levelname": "INFO", "Message": "--> Database db_scrapers already exists"}
{"Asctime": "2021-04-21 22:25:41,102", "Levelname": "INFO", "Message": "--> Succesfully created table paru_vendu"}
{"Asctime": "2021-04-21 22:25:41,103", "Levelname": "INFO", "Message": "--> Started listening on queue database exchnage for db_scrapers:paru_vendu"}
{"Asctime": "2021-04-21 22:25:44,147", "Levelname": "INFO", "Message": "--> Scraping https://www.paruvendu.fr/a/voiture-occasion/ferrari/458/1252024999A1KVVOFE458"}
{"Asctime": "2021-04-21 22:25:45,135", "Levelname": "INFO", "Message": "--> Page https://www.paruvendu.fr/a/voiture-occasion/ferrari/458/1252024999A1KVVOFE458 scraped in 0.9778988620000746 second"}
{"Asctime": "2021-04-21 22:34:37,498", "Levelname": "INFO", "Message": "--> Correctly loaded config for database db_scrapers on 172.19.0.1"}
{"Asctime": "2021-04-21 22:34:37,501", "Levelname": "INFO", "Message": "--> Successfully connected to db_scrapers on 172.19.0.1"}
{"Asctime": "2021-04-21 22:34:37,502", "Levelname": "INFO", "Message": "--> Database db_scrapers already exists"}
{"Asctime": "2021-04-21 22:34:37,503", "Levelname": "INFO", "Message": "--> Succesfully created table paru_vendu"}
{"Asctime": "2021-04-21 22:34:37,503", "Levelname": "INFO", "Message": "--> Started listening on queue database exchnage for db_scrapers:paru_vendu"}
{"Asctime": "2021-04-21 22:34:40,527", "Levelname": "INFO", "Message": "--> Scraping https://www.paruvendu.fr/a/voiture-occasion/ferrari/458/1252024999A1KVVOFE458"}
{"Asctime": "2021-04-21 22:34:41,351", "Levelname": "INFO", "Message": "--> Page https://www.paruvendu.fr/a/voiture-occasion/ferrari/458/1252024999A1KVVOFE458 scraped in 0.8133559680009057 second"}
{"Asctime": "2021-04-21 22:53:15,704", "Levelname": "INFO", "Message": "--> Correctly loaded config for database db_scrapers on 172.19.0.1"}
{"Asctime": "2021-04-21 22:53:15,706", "Levelname": "INFO", "Message": "--> Successfully connected to db_scrapers on 172.19.0.1"}
{"Asctime": "2021-04-21 22:53:15,706", "Levelname": "INFO", "Message": "--> Database db_scrapers already exists"}
{"Asctime": "2021-04-21 22:53:15,707", "Levelname": "INFO", "Message": "--> Succesfully created table paru_vendu"}
{"Asctime": "2021-04-21 22:53:15,707", "Levelname": "INFO", "Message": "--> Started listening on queue database exchnage for db_scrapers:paru_vendu"}
{"Asctime": "2021-04-21 22:53:17,741", "Levelname": "INFO", "Message": "--> Scraping https://www.paruvendu.fr/a/voiture-occasion/ferrari/458/1252024999A1KVVOFE458"}
{"Asctime": "2021-04-21 22:53:19,378", "Levelname": "INFO", "Message": "--> Page https://www.paruvendu.fr/a/voiture-occasion/ferrari/458/1252024999A1KVVOFE458 scraped in 1.625815508999949 second"}
