{
    "manufacturer": "honda",
    "links": [
        "https://www.paruvendu.fr/a/voiture-occasion/honda/civic/1251385764A1KVVOHOCIV",
        "https://www.paruvendu.fr/a/voiture-occasion/honda/civic/1253158609A1KVVOHOCIV",
        "https://www.paruvendu.fr/a/voiture-occasion/honda/cr-v/1253222012A1KVVOHOCRV",
        "https://www.paruvendu.fr/a/voiture-occasion/honda/civic/1252726734A1KVVOHOCIV",
        "https://www.paruvendu.fr/a/voiture-occasion/honda/civic/1252529037A1KVVOHOCIV",
        "https://www.paruvendu.fr/a/voiture-occasion/honda/accord/1252438343A1KVVOHOACC",
        "https://www.paruvendu.fr/a/voiture-occasion/honda/hr-v/1251957713A1KVVOHOHRV",
        "https://www.paruvendu.fr/a/voiture-occasion/honda/cr-z/1251197387A1KVVOHOCRZ",
        "https://www.paruvendu.fr/a/voiture-occasion/honda/accord/1250207342A1KVVOHOACC",
        "https://www.paruvendu.fr/a/voiture-occasion/honda/jazz/1223678922A1KVVOHOJAZ",
        "https://www.paruvendu.fr/a/voiture-occasion/honda/cr-v/1253308246A1KVVOHOCRV",
        "https://www.paruvendu.fr/a/voiture-occasion/honda/fr-v/1252904823A1KVVOHOFRV",
        "https://www.paruvendu.fr/a/voiture-occasion/honda/jazz/1253306657A1KVVOHOJAZ",
        "https://www.paruvendu.fr/a/voiture-occasion/honda/civic/1250933400A1KVVOHOCIV",
        "https://www.paruvendu.fr/a/voiture-occasion/honda/civic/1252432208A1KVVOHOCIV",
        "https://www.paruvendu.fr/a/voiture-occasion/honda/civic/1253295485A1KVVOHOCIV",
        "https://www.paruvendu.fr/a/voiture-occasion/honda/civic/1252478799A1KVVOHOCIV",
        "https://www.paruvendu.fr/a/voiture-occasion/honda/divers/1253289140A1KVVOHOZZZ",
        "https://www.paruvendu.fr/a/voiture-occasion/honda/hr-v/1253289054A1KVVOHOHRV",
        "https://www.paruvendu.fr/a/voiture-occasion/honda/hr-v/1253289048A1KVVOHOHRV",
        "https://www.paruvendu.fr/a/voiture-occasion/honda/hr-v/1253289053A1KVVOHOHRV",
        "https://www.paruvendu.fr/a/voiture-occasion/honda/hr-v/1253289052A1KVVOHOHRV",
        "https://www.paruvendu.fr/a/voiture-occasion/honda/hr-v/1253289051A1KVVOHOHRV",
        "https://www.paruvendu.fr/a/voiture-occasion/honda/hr-v/1253289050A1KVVOHOHRV",
        "https://www.paruvendu.fr/a/voiture-occasion/honda/hr-v/1253289049A1KVVOHOHRV",
        "https://www.paruvendu.fr/a/voiture-occasion/honda/hr-v/1253289046A1KVVOHOHRV",
        "https://www.paruvendu.fr/a/voiture-occasion/honda/jazz/1253288966A1KVVOHOJAZ",
        "https://www.paruvendu.fr/a/voiture-occasion/honda/jazz/1253278779A1KVVOHOJAZ",
        "https://www.paruvendu.fr/a/voiture-occasion/honda/civic/1253271207A1KVVOHOCIV",
        "https://www.paruvendu.fr/a/voiture-occasion/honda/insight/1250579925A1KVVOHOINS",
        "https://www.paruvendu.fr/a/voiture-occasion/honda/jazz/1252741143A1KVVOHOJAZ",
        "https://www.paruvendu.fr/a/voiture-occasion/honda/hr-v/1252420259A1KVVOHOHRV",
        "https://www.paruvendu.fr/a/voiture-occasion/honda/civic/1253122055A1KVVOHOCIV",
        "https://www.paruvendu.fr/a/voiture-occasion/honda/cr-v/1252183424A1KVVOHOCRV",
        "https://www.paruvendu.fr/a/voiture-occasion/honda/jazz/1253255734A1KVVOHOJAZ",
        "https://www.paruvendu.fr/a/voiture-occasion/honda/cr-v/1253253783A1KVVOHOCRV",
        "https://www.paruvendu.fr/a/voiture-occasion/honda/civic/1252393750A1KVVOHOCIV",
        "https://www.paruvendu.fr/a/voiture-occasion/honda/hr-v/1252563935A1KVVOHOHRV",
        "https://www.paruvendu.fr/a/voiture-occasion/honda/civic/1250761407A1KVVOHOCIV",
        "https://www.paruvendu.fr/a/voiture-occasion/honda/hr-v/1251001159A1KVVOHOHRV",
        "https://www.paruvendu.fr/a/voiture-occasion/honda/hr-v/1252514257A1KVVOHOHRV",
        "https://www.paruvendu.fr/a/voiture-occasion/honda/jazz/1248374799A1KVVOHOJAZ",
        "https://www.paruvendu.fr/a/voiture-occasion/honda/jazz/1253152420A1KVVOHOJAZ",
        "https://www.paruvendu.fr/a/voiture-occasion/honda/civic/1245217303A1KVVOHOCIV",
        "https://www.paruvendu.fr/a/voiture-occasion/honda/civic/1252625308A1KVVOHOCIV",
        "https://www.paruvendu.fr/a/voiture-occasion/honda/divers/1248212711A1KVVOHOZZZ",
        "https://www.paruvendu.fr/a/voiture-occasion/honda/cr-v/1243759573A1KVVOHOCRV",
        "https://www.paruvendu.fr/a/voiture-occasion/honda/hr-v/1249003802A1KVVOHOHRV",
        "https://www.paruvendu.fr/a/voiture-occasion/honda/civic/1249563009A1KVVOHOCIV",
        "https://www.paruvendu.fr/a/voiture-occasion/honda/hr-v/1250084010A1KVVOHOHRV",
        "https://www.paruvendu.fr/a/voiture-occasion/honda/hr-v/1252785375A1KVVOHOHRV",
        "https://www.paruvendu.fr/a/voiture-occasion/honda/civic/1253068289A1KVVOHOCIV",
        "https://www.paruvendu.fr/a/voiture-occasion/honda/civic/1252157330A1KVVOHOCIV",
        "https://www.paruvendu.fr/a/voiture-occasion/honda/hr-v/1251660269A1KVVOHOHRV",
        "https://www.paruvendu.fr/a/voiture-occasion/honda/jazz/1252198824A1KVVOHOJAZ",
        "https://www.paruvendu.fr/a/voiture-occasion/honda/cr-v/1246962776A1KVVOHOCRV",
        "https://www.paruvendu.fr/a/voiture-occasion/honda/accord/1252458870A1KVVOHOACC",
        "https://www.paruvendu.fr/a/voiture-occasion/honda/civic/1253244903A1KVVOHOCIV",
        "https://www.paruvendu.fr/a/voiture-occasion/honda/civic/1253101700A1KVVOHOCIV",
        "https://www.paruvendu.fr/a/voiture-occasion/honda/civic/1252564704A1KVVOHOCIV",
        "https://www.paruvendu.fr/a/voiture-occasion/honda/cr-v/1253234866A1KVVOHOCRV",
        "https://www.paruvendu.fr/a/voiture-occasion/honda/cr-v/1251630501A1KVVOHOCRV",
        "https://www.paruvendu.fr/a/voiture-occasion/honda/civic/1252689372A1KVVOHOCIV",
        "https://www.paruvendu.fr/a/voiture-occasion/honda/civic/1252232343A1KVVOHOCIV",
        "https://www.paruvendu.fr/a/voiture-occasion/honda/jazz/1250545700A1KVVOHOJAZ",
        "https://www.paruvendu.fr/a/voiture-occasion/honda/hr-v/1250721335A1KVVOHOHRV",
        "https://www.paruvendu.fr/a/voiture-occasion/honda/jazz/1253202309A1KVVOHOJAZ",
        "https://www.paruvendu.fr/a/voiture-occasion/honda/jazz/1251403072A1KVVOHOJAZ",
        "https://www.paruvendu.fr/a/voiture-occasion/honda/cr-v/1249396332A1KVVOHOCRV",
        "https://www.paruvendu.fr/a/voiture-occasion/honda/cr-v/1250239976A1KVVOHOCRV",
        "https://www.paruvendu.fr/a/voiture-occasion/honda/civic/1253201685A1KVVOHOCIV",
        "https://www.paruvendu.fr/a/voiture-occasion/honda/cr-v/1253195040A1KVVOHOCRV",
        "https://www.paruvendu.fr/a/voiture-occasion/honda/civic/1253193907A1KVVOHOCIV",
        "https://www.paruvendu.fr/a/voiture-occasion/honda/civic/1253190774A1KVVOHOCIV",
        "https://www.paruvendu.fr/a/voiture-occasion/honda/jazz/1249358345A1KVVOHOJAZ",
        "https://www.paruvendu.fr/a/voiture-occasion/honda/civic/1250808881A1KVVOHOCIV",
        "https://www.paruvendu.fr/a/voiture-occasion/honda/cr-v/1253188511A1KVVOHOCRV",
        "https://www.paruvendu.fr/a/voiture-occasion/honda/civic/1253181587A1KVVOHOCIV",
        "https://www.paruvendu.fr/a/voiture-occasion/honda/jazz/1253169116A1KVVOHOJAZ",
        "https://www.paruvendu.fr/a/voiture-occasion/honda/jazz/1253168263A1KVVOHOJAZ",
        "https://www.paruvendu.fr/a/voiture-occasion/honda/civic/1252415100A1KVVOHOCIV",
        "https://www.paruvendu.fr/a/voiture-occasion/honda/civic/1252929919A1KVVOHOCIV",
        "https://www.paruvendu.fr/a/voiture-occasion/honda/civic/1252708496A1KVVOHOCIV",
        "https://www.paruvendu.fr/a/voiture-occasion/honda/hr-v/1247440132A1KVVOHOHRV",
        "https://www.paruvendu.fr/a/voiture-occasion/honda/cr-v/1250277715A1KVVOHOCRV",
        "https://www.paruvendu.fr/a/voiture-occasion/honda/hr-v/1250002274A1KVVOHOHRV",
        "https://www.paruvendu.fr/a/voiture-occasion/honda/jazz/1252699413A1KVVOHOJAZ",
        "https://www.paruvendu.fr/a/voiture-occasion/honda/jazz/1252156869A1KVVOHOJAZ",
        "https://www.paruvendu.fr/a/voiture-occasion/honda/jazz/1252156874A1KVVOHOJAZ",
        "https://www.paruvendu.fr/a/voiture-occasion/honda/jazz/1252218420A1KVVOHOJAZ",
        "https://www.paruvendu.fr/a/voiture-occasion/honda/jazz/1252156873A1KVVOHOJAZ",
        "https://www.paruvendu.fr/a/voiture-occasion/honda/jazz/1252156881A1KVVOHOJAZ",
        "https://www.paruvendu.fr/a/voiture-occasion/honda/jazz/1252156887A1KVVOHOJAZ",
        "https://www.paruvendu.fr/a/voiture-occasion/honda/jazz/1252586747A1KVVOHOJAZ",
        "https://www.paruvendu.fr/a/voiture-occasion/honda/civic/1252156868A1KVVOHOCIV",
        "https://www.paruvendu.fr/a/voiture-occasion/honda/civic/1252156879A1KVVOHOCIV",
        "https://www.paruvendu.fr/a/voiture-occasion/honda/hr-v/1252156878A1KVVOHOHRV",
        "https://www.paruvendu.fr/a/voiture-occasion/honda/jazz/1252639972A1KVVOHOJAZ",
        "https://www.paruvendu.fr/a/voiture-occasion/honda/civic/1252259734A1KVVOHOCIV",
        "https://www.paruvendu.fr/a/voiture-occasion/honda/divers/1252156892A1KVVOHOZZZ",
        "https://www.paruvendu.fr/a/voiture-occasion/honda/divers/1252156891A1KVVOHOZZZ",
        "https://www.paruvendu.fr/a/voiture-occasion/honda/cr-v/1252156890A1KVVOHOCRV",
        "https://www.paruvendu.fr/a/voiture-occasion/honda/civic/1252683566A1KVVOHOCIV",
        "https://www.paruvendu.fr/a/voiture-occasion/honda/civic/1253054512A1KVVOHOCIV",
        "https://www.paruvendu.fr/a/voiture-occasion/honda/jazz/1252025128A1KVVOHOJAZ",
        "https://www.paruvendu.fr/a/voiture-occasion/honda/civic/1253035023A1KVVOHOCIV",
        "https://www.paruvendu.fr/a/voiture-occasion/honda/jazz/1252259649A1KVVOHOJAZ",
        "https://www.paruvendu.fr/a/voiture-occasion/honda/jazz/1252156515A1KVVOHOJAZ",
        "https://www.paruvendu.fr/a/voiture-occasion/honda/jazz/1252586525A1KVVOHOJAZ",
        "https://www.paruvendu.fr/a/voiture-occasion/honda/jazz/1252176383A1KVVOHOJAZ",
        "https://www.paruvendu.fr/a/voiture-occasion/honda/hr-v/1252156513A1KVVOHOHRV",
        "https://www.paruvendu.fr/a/voiture-occasion/honda/cr-v/1252156514A1KVVOHOCRV",
        "https://www.paruvendu.fr/a/voiture-occasion/honda/jazz/1252586526A1KVVOHOJAZ",
        "https://www.paruvendu.fr/a/voiture-occasion/honda/jazz/1252156519A1KVVOHOJAZ",
        "https://www.paruvendu.fr/a/voiture-occasion/honda/jazz/1252156521A1KVVOHOJAZ",
        "https://www.paruvendu.fr/a/voiture-occasion/honda/cr-v/1252156509A1KVVOHOCRV",
        "https://www.paruvendu.fr/a/voiture-occasion/honda/hr-v/1253067996A1KVVOHOHRV",
        "https://www.paruvendu.fr/a/voiture-occasion/honda/civic/1252259648A1KVVOHOCIV",
        "https://www.paruvendu.fr/a/voiture-occasion/honda/jazz/1252156528A1KVVOHOJAZ",
        "https://www.paruvendu.fr/a/voiture-occasion/honda/jazz/1252156527A1KVVOHOJAZ",
        "https://www.paruvendu.fr/a/voiture-occasion/honda/jazz/1252156524A1KVVOHOJAZ",
        "https://www.paruvendu.fr/a/voiture-occasion/honda/jazz/1252624811A1KVVOHOJAZ",
        "https://www.paruvendu.fr/a/voiture-occasion/honda/jazz/1252156526A1KVVOHOJAZ",
        "https://www.paruvendu.fr/a/voiture-occasion/honda/jazz/1252156525A1KVVOHOJAZ",
        "https://www.paruvendu.fr/a/voiture-occasion/honda/divers/1252156523A1KVVOHOZZZ",
        "https://www.paruvendu.fr/a/voiture-occasion/honda/cr-v/1252156522A1KVVOHOCRV",
        "https://www.paruvendu.fr/a/voiture-occasion/honda/cr-v/1252156520A1KVVOHOCRV",
        "https://www.paruvendu.fr/a/voiture-occasion/honda/cr-v/1252746315A1KVVOHOCRV",
        "https://www.paruvendu.fr/a/voiture-occasion/honda/hr-v/1251662168A1KVVOHOHRV",
        "https://www.paruvendu.fr/a/voiture-occasion/honda/cr-v/1253151502A1KVVOHOCRV",
        "https://www.paruvendu.fr/a/voiture-occasion/honda/jazz/1253134479A1KVVOHOJAZ",
        "https://www.paruvendu.fr/a/voiture-occasion/honda/hr-v/1251227972A1KVVOHOHRV",
        "https://www.paruvendu.fr/a/voiture-occasion/honda/hr-v/1251894370A1KVVOHOHRV",
        "https://www.paruvendu.fr/a/voiture-occasion/honda/jazz/1246227349A1KVVOHOJAZ",
        "https://www.paruvendu.fr/a/voiture-occasion/honda/civic/1252198112A1KVVOHOCIV",
        "https://www.paruvendu.fr/a/voiture-occasion/honda/civic/1253109562A1KVVOHOCIV",
        "https://www.paruvendu.fr/a/voiture-occasion/honda/cr-v/1252711805A1KVVOHOCRV",
        "https://www.paruvendu.fr/a/voiture-occasion/honda/cr-v/1252033259A1KVVOHOCRV",
        "https://www.paruvendu.fr/a/voiture-occasion/honda/jazz/1251619349A1KVVOHOJAZ",
        "https://www.paruvendu.fr/a/voiture-occasion/honda/jazz/1250509233A1KVVOHOJAZ",
        "https://www.paruvendu.fr/a/voiture-occasion/honda/hr-v/1250855628A1KVVOHOHRV",
        "https://www.paruvendu.fr/a/voiture-occasion/honda/cr-v/1246876485A1KVVOHOCRV",
        "https://www.paruvendu.fr/a/voiture-occasion/honda/civic/1253102498A1KVVOHOCIV",
        "https://www.paruvendu.fr/a/voiture-occasion/honda/jazz/1250725337A1KVVOHOJAZ",
        "https://www.paruvendu.fr/a/voiture-occasion/honda/jazz/1253093162A1KVVOHOJAZ",
        "https://www.paruvendu.fr/a/voiture-occasion/honda/jazz/1253093147A1KVVOHOJAZ",
        "https://www.paruvendu.fr/a/voiture-occasion/honda/cr-v/1251588137A1KVVOHOCRV",
        "https://www.paruvendu.fr/a/voiture-occasion/honda/cr-v/1250185809A1KVVOHOCRV",
        "https://www.paruvendu.fr/a/voiture-occasion/honda/civic/1253091402A1KVVOHOCIV",
        "https://www.paruvendu.fr/a/voiture-occasion/honda/civic/1253091395A1KVVOHOCIV",
        "https://www.paruvendu.fr/a/voiture-occasion/honda/civic/1253090704A1KVVOHOCIV",
        "https://www.paruvendu.fr/a/voiture-occasion/honda/jazz/1253072841A1KVVOHOJAZ",
        "https://www.paruvendu.fr/a/voiture-occasion/honda/cr-v/1250151466A1KVVOHOCRV",
        "https://www.paruvendu.fr/a/voiture-occasion/honda/cr-v/1253062999A1KVVOHOCRV",
        "https://www.paruvendu.fr/a/voiture-occasion/honda/cr-v/1252735333A1KVVOHOCRV",
        "https://www.paruvendu.fr/a/voiture-occasion/honda/jazz/1251844309A1KVVOHOJAZ",
        "https://www.paruvendu.fr/a/voiture-occasion/honda/cr-v/1251092791A1KVVOHOCRV",
        "https://www.paruvendu.fr/a/voiture-occasion/honda/cr-v/1251030599A1KVVOHOCRV",
        "https://www.paruvendu.fr/a/voiture-occasion/honda/hr-v/1253042343A1KVVOHOHRV",
        "https://www.paruvendu.fr/a/voiture-occasion/honda/hr-v/1250902826A1KVVOHOHRV",
        "https://www.paruvendu.fr/a/voiture-occasion/honda/accord/1244721449A1KVVOHOACC",
        "https://www.paruvendu.fr/a/voiture-occasion/honda/cr-v/1252025428A1KVVOHOCRV",
        "https://www.paruvendu.fr/a/voiture-occasion/honda/jazz/1252959698A1KVVOHOJAZ",
        "https://www.paruvendu.fr/a/voiture-occasion/honda/hr-v/1253019111A1KVVOHOHRV",
        "https://www.paruvendu.fr/a/voiture-occasion/honda/civic/1252858269A1KVVOHOCIV",
        "https://www.paruvendu.fr/a/voiture-occasion/honda/jazz/1249411899A1KVVOHOJAZ",
        "https://www.paruvendu.fr/a/voiture-occasion/honda/cr-v/1251379475A1KVVOHOCRV",
        "https://www.paruvendu.fr/a/voiture-occasion/honda/insight/1251489673A1KVVOHOINS",
        "https://www.paruvendu.fr/a/voiture-occasion/honda/jazz/1251451937A1KVVOHOJAZ",
        "https://www.paruvendu.fr/a/voiture-occasion/honda/cr-z/1252960264A1KVVOHOCRZ",
        "https://www.paruvendu.fr/a/voiture-occasion/honda/jazz/1252951181A1KVVOHOJAZ",
        "https://www.paruvendu.fr/a/voiture-occasion/honda/civic/1249806474A1KVVOHOCIV",
        "https://www.paruvendu.fr/a/voiture-occasion/honda/civic/1252925072A1KVVOHOCIV",
        "https://www.paruvendu.fr/a/voiture-occasion/honda/jazz/1252925060A1KVVOHOJAZ",
        "https://www.paruvendu.fr/a/voiture-occasion/honda/cr-v/1252924360A1KVVOHOCRV",
        "https://www.paruvendu.fr/a/voiture-occasion/honda/cr-v/1252924353A1KVVOHOCRV",
        "https://www.paruvendu.fr/a/voiture-occasion/honda/jazz/1252914174A1KVVOHOJAZ",
        "https://www.paruvendu.fr/a/voiture-occasion/honda/accord/1242249379A1KVVOHOACC",
        "https://www.paruvendu.fr/a/voiture-occasion/honda/jazz/1252910036A1KVVOHOJAZ",
        "https://www.paruvendu.fr/a/voiture-occasion/honda/civic/1252304473A1KVVOHOCIV",
        "https://www.paruvendu.fr/a/voiture-occasion/honda/prelude/1252905038A1KVVOHOPRE",
        "https://www.paruvendu.fr/a/voiture-occasion/honda/civic/1252902720A1KVVOHOCIV",
        "https://www.paruvendu.fr/a/voiture-occasion/honda/civic/1252893501A1KVVOHOCIV",
        "https://www.paruvendu.fr/a/voiture-occasion/honda/civic/1252187064A1KVVOHOCIV",
        "https://www.paruvendu.fr/a/voiture-occasion/honda/accord/1253217924A1KVVOHOACC",
        "https://www.paruvendu.fr/a/voiture-occasion/honda/hr-v/1252876917A1KVVOHOHRV",
        "https://www.paruvendu.fr/a/voiture-occasion/honda/jazz/1251376643A1KVVOHOJAZ",
        "https://www.paruvendu.fr/a/voiture-occasion/honda/cr-v/1252873516A1KVVOHOCRV",
        "https://www.paruvendu.fr/a/voiture-occasion/honda/civic/1251119005A1KVVOHOCIV",
        "https://www.paruvendu.fr/a/voiture-occasion/honda/insight/1252187065A1KVVOHOINS",
        "https://www.paruvendu.fr/a/voiture-occasion/honda/civic/1248900379A1KVVOHOCIV",
        "https://www.paruvendu.fr/a/voiture-occasion/honda/cr-v/1251356687A1KVVOHOCRV",
        "https://www.paruvendu.fr/a/voiture-occasion/honda/accord/1252801207A1KVVOHOACC",
        "https://www.paruvendu.fr/a/voiture-occasion/honda/cr-v/1251754468A1KVVOHOCRV",
        "https://www.paruvendu.fr/a/voiture-occasion/honda/cr-v/1247941782A1KVVOHOCRV",
        "https://www.paruvendu.fr/a/voiture-occasion/honda/jazz/1249913209A1KVVOHOJAZ",
        "https://www.paruvendu.fr/a/voiture-occasion/honda/jazz/1252014839A1KVVOHOJAZ",
        "https://www.paruvendu.fr/a/voiture-occasion/honda/jazz/1252784963A1KVVOHOJAZ",
        "https://www.paruvendu.fr/a/voiture-occasion/honda/cr-v/1252782314A1KVVOHOCRV",
        "https://www.paruvendu.fr/a/voiture-occasion/honda/civic/1252771667A1KVVOHOCIV",
        "https://www.paruvendu.fr/a/voiture-occasion/honda/cr-v/1251971213A1KVVOHOCRV",
        "https://www.paruvendu.fr/a/voiture-occasion/honda/hr-v/1252768742A1KVVOHOHRV",
        "https://www.paruvendu.fr/a/voiture-occasion/honda/cr-v/1252766581A1KVVOHOCRV",
        "https://www.paruvendu.fr/a/voiture-occasion/honda/civic/1252458872A1KVVOHOCIV",
        "https://www.paruvendu.fr/a/voiture-occasion/honda/civic/1252766520A1KVVOHOCIV",
        "https://www.paruvendu.fr/a/voiture-occasion/honda/cr-v/1252759054A1KVVOHOCRV",
        "https://www.paruvendu.fr/a/voiture-occasion/honda/jazz/1252751780A1KVVOHOJAZ",
        "https://www.paruvendu.fr/a/voiture-occasion/honda/civic/1252102248A1KVVOHOCIV",
        "https://www.paruvendu.fr/a/voiture-occasion/honda/cr-v/1252746175A1KVVOHOCRV",
        "https://www.paruvendu.fr/a/voiture-occasion/honda/cr-z/1252303191A1KVVOHOCRZ",
        "https://www.paruvendu.fr/a/voiture-occasion/honda/civic/1245702221A1KVVOHOCIV",
        "https://www.paruvendu.fr/a/voiture-occasion/honda/cr-v/1252391991A1KVVOHOCRV",
        "https://www.paruvendu.fr/a/voiture-occasion/honda/civic/1252741119A1KVVOHOCIV",
        "https://www.paruvendu.fr/a/voiture-occasion/honda/hr-v/1250612762A1KVVOHOHRV",
        "https://www.paruvendu.fr/a/voiture-occasion/honda/civic/1252581767A1KVVOHOCIV",
        "https://www.paruvendu.fr/a/voiture-occasion/honda/civic/1252701594A1KVVOHOCIV",
        "https://www.paruvendu.fr/a/voiture-occasion/honda/hr-v/1253189382A1KVVOHOHRV",
        "https://www.paruvendu.fr/a/voiture-occasion/honda/civic/1252570401A1KVVOHOCIV",
        "https://www.paruvendu.fr/a/voiture-occasion/honda/cr-v/1252683175A1KVVOHOCRV",
        "https://www.paruvendu.fr/a/voiture-occasion/honda/civic/1252386688A1KVVOHOCIV",
        "https://www.paruvendu.fr/a/voiture-occasion/honda/fr-v/1252677765A1KVVOHOFRV",
        "https://www.paruvendu.fr/a/voiture-occasion/honda/cr-v/1252677764A1KVVOHOCRV",
        "https://www.paruvendu.fr/a/voiture-occasion/honda/civic/1252676821A1KVVOHOCIV",
        "https://www.paruvendu.fr/a/voiture-occasion/honda/civic/1252672928A1KVVOHOCIV",
        "https://www.paruvendu.fr/a/voiture-occasion/honda/cr-z/1252672674A1KVVOHOCRZ",
        "https://www.paruvendu.fr/a/voiture-occasion/honda/hr-v/1252670435A1KVVOHOHRV",
        "https://www.paruvendu.fr/a/voiture-occasion/honda/civic/1251899914A1KVVOHOCIV",
        "https://www.paruvendu.fr/a/voiture-occasion/honda/cr-v/1252630591A1KVVOHOCRV",
        "https://www.paruvendu.fr/a/voiture-occasion/honda/civic/1252617995A1KVVOHOCIV",
        "https://www.paruvendu.fr/a/voiture-occasion/honda/jazz/1252592429A1KVVOHOJAZ",
        "https://www.paruvendu.fr/a/voiture-occasion/honda/cr-v/1252591779A1KVVOHOCRV",
        "https://www.paruvendu.fr/a/voiture-occasion/honda/civic/1252587274A1KVVOHOCIV",
        "https://www.paruvendu.fr/a/voiture-occasion/honda/civic/1252586561A1KVVOHOCIV",
        "https://www.paruvendu.fr/a/voiture-occasion/honda/hr-v/1250504164A1KVVOHOHRV",
        "https://www.paruvendu.fr/a/voiture-occasion/honda/jazz/1252532973A1KVVOHOJAZ",
        "https://www.paruvendu.fr/a/voiture-occasion/honda/civic/1252573183A1KVVOHOCIV",
        "https://www.paruvendu.fr/a/voiture-occasion/honda/civic/1252572740A1KVVOHOCIV",
        "https://www.paruvendu.fr/a/voiture-occasion/honda/civic/1252564444A1KVVOHOCIV",
        "https://www.paruvendu.fr/a/voiture-occasion/honda/civic/1252559212A1KVVOHOCIV",
        "https://www.paruvendu.fr/a/voiture-occasion/honda/cr-v/1225401349A1KVVOHOCRV",
        "https://www.paruvendu.fr/a/voiture-occasion/honda/cr-z/1252539006A1KVVOHOCRZ",
        "https://www.paruvendu.fr/a/voiture-occasion/honda/cr-v/1252538305A1KVVOHOCRV",
        "https://www.paruvendu.fr/a/voiture-occasion/honda/civic/1252535206A1KVVOHOCIV",
        "https://www.paruvendu.fr/a/voiture-occasion/honda/cr-v/1251383466A1KVVOHOCRV",
        "https://www.paruvendu.fr/a/voiture-occasion/honda/civic/1251030778A1KVVOHOCIV",
        "https://www.paruvendu.fr/a/voiture-occasion/honda/hr-v/1251016732A1KVVOHOHRV",
        "https://www.paruvendu.fr/a/voiture-occasion/honda/prelude/1252511320A1KVVOHOPRE",
        "https://www.paruvendu.fr/a/voiture-occasion/honda/civic/1252507572A1KVVOHOCIV",
        "https://www.paruvendu.fr/a/voiture-occasion/honda/divers/1251064404A1KVVOHOZZZ",
        "https://www.paruvendu.fr/a/voiture-occasion/honda/civic/1252503912A1KVVOHOCIV",
        "https://www.paruvendu.fr/a/voiture-occasion/honda/civic/1252499114A1KVVOHOCIV",
        "https://www.paruvendu.fr/a/voiture-occasion/honda/civic/1253050932A1KVVOHOCIV",
        "https://www.paruvendu.fr/a/voiture-occasion/honda/cr-v/1252478059A1KVVOHOCRV",
        "https://www.paruvendu.fr/a/voiture-occasion/honda/civic/1250983544A1KVVOHOCIV",
        "https://www.paruvendu.fr/a/voiture-occasion/honda/cr-v/1252469662A1KVVOHOCRV",
        "https://www.paruvendu.fr/a/voiture-occasion/honda/cr-v/1252468629A1KVVOHOCRV",
        "https://www.paruvendu.fr/a/voiture-occasion/honda/jazz/1248842208A1KVVOHOJAZ",
        "https://www.paruvendu.fr/a/voiture-occasion/honda/jazz/1252440426A1KVVOHOJAZ",
        "https://www.paruvendu.fr/a/voiture-occasion/honda/civic/1252447378A1KVVOHOCIV",
        "https://www.paruvendu.fr/a/voiture-occasion/honda/fr-v/1252437123A1KVVOHOFRV",
        "https://www.paruvendu.fr/a/voiture-occasion/honda/civic/1252420463A1KVVOHOCIV",
        "https://www.paruvendu.fr/a/voiture-occasion/honda/jazz/1252420431A1KVVOHOJAZ",
        "https://www.paruvendu.fr/a/voiture-occasion/honda/civic/1244023466A1KVVOHOCIV",
        "https://www.paruvendu.fr/a/voiture-occasion/honda/civic/1244023210A1KVVOHOCIV",
        "https://www.paruvendu.fr/a/voiture-occasion/honda/cr-v/1244022787A1KVVOHOCRV",
        "https://www.paruvendu.fr/a/voiture-occasion/honda/cr-v/1250612734A1KVVOHOCRV",
        "https://www.paruvendu.fr/a/voiture-occasion/honda/civic/1251383308A1KVVOHOCIV",
        "https://www.paruvendu.fr/a/voiture-occasion/honda/cr-v/1252371042A1KVVOHOCRV",
        "https://www.paruvendu.fr/a/voiture-occasion/honda/civic/1251522796A1KVVOHOCIV",
        "https://www.paruvendu.fr/a/voiture-occasion/honda/civic/1250437194A1KVVOHOCIV",
        "https://www.paruvendu.fr/a/voiture-occasion/honda/jazz/1252341260A1KVVOHOJAZ",
        "https://www.paruvendu.fr/a/voiture-occasion/honda/cr-v/1252333981A1KVVOHOCRV",
        "https://www.paruvendu.fr/a/voiture-occasion/honda/cr-z/1252270097A1KVVOHOCRZ",
        "https://www.paruvendu.fr/a/voiture-occasion/honda/jazz/1252296232A1KVVOHOJAZ",
        "https://www.paruvendu.fr/a/voiture-occasion/honda/civic/1252260194A1KVVOHOCIV",
        "https://www.paruvendu.fr/a/voiture-occasion/honda/civic/1241321794A1KVVOHOCIV",
        "https://www.paruvendu.fr/a/voiture-occasion/honda/civic/1241321793A1KVVOHOCIV",
        "https://www.paruvendu.fr/a/voiture-occasion/honda/civic/1241321792A1KVVOHOCIV",
        "https://www.paruvendu.fr/a/voiture-occasion/honda/civic/1241320484A1KVVOHOCIV",
        "https://www.paruvendu.fr/a/voiture-occasion/honda/cr-v/1241320640A1KVVOHOCRV",
        "https://www.paruvendu.fr/a/voiture-occasion/honda/cr-v/1241320642A1KVVOHOCRV",
        "https://www.paruvendu.fr/a/voiture-occasion/honda/cr-v/1241320641A1KVVOHOCRV",
        "https://www.paruvendu.fr/a/voiture-occasion/honda/cr-v/1241320643A1KVVOHOCRV",
        "https://www.paruvendu.fr/a/voiture-occasion/honda/cr-v/1241320644A1KVVOHOCRV",
        "https://www.paruvendu.fr/a/voiture-occasion/honda/cr-v/1241320646A1KVVOHOCRV",
        "https://www.paruvendu.fr/a/voiture-occasion/honda/civic/1252253828A1KVVOHOCIV",
        "https://www.paruvendu.fr/a/voiture-occasion/honda/civic/1250715003A1KVVOHOCIV",
        "https://www.paruvendu.fr/a/voiture-occasion/honda/cr-v/1252198207A1KVVOHOCRV",
        "https://www.paruvendu.fr/a/voiture-occasion/honda/cr-v/1252198206A1KVVOHOCRV",
        "https://www.paruvendu.fr/a/voiture-occasion/honda/cr-v/1252109850A1KVVOHOCRV",
        "https://www.paruvendu.fr/a/voiture-occasion/honda/hr-v/1251796900A1KVVOHOHRV",
        "https://www.paruvendu.fr/a/voiture-occasion/honda/jazz/1252066294A1KVVOHOJAZ",
        "https://www.paruvendu.fr/a/voiture-occasion/honda/hr-v/1250612735A1KVVOHOHRV",
        "https://www.paruvendu.fr/a/voiture-occasion/honda/civic/1251997516A1KVVOHOCIV",
        "https://www.paruvendu.fr/a/voiture-occasion/honda/cr-v/1251970706A1KVVOHOCRV",
        "https://www.paruvendu.fr/a/voiture-occasion/honda/jazz/1251954642A1KVVOHOJAZ",
        "https://www.paruvendu.fr/a/voiture-occasion/honda/cr-v/1240984198A1KVVOHOCRV",
        "https://www.paruvendu.fr/a/voiture-occasion/honda/civic/1251929656A1KVVOHOCIV",
        "https://www.paruvendu.fr/a/voiture-occasion/honda/civic/1251920827A1KVVOHOCIV",
        "https://www.paruvendu.fr/a/voiture-occasion/honda/cr-v/1251917557A1KVVOHOCRV",
        "https://www.paruvendu.fr/a/voiture-occasion/honda/cr-v/1251913891A1KVVOHOCRV",
        "https://www.paruvendu.fr/a/voiture-occasion/honda/civic/1251268000A1KVVOHOCIV",
        "https://www.paruvendu.fr/a/voiture-occasion/honda/civic/1251784941A1KVVOHOCIV",
        "https://www.paruvendu.fr/a/voiture-occasion/honda/civic/1249400661A1KVVOHOCIV",
        "https://www.paruvendu.fr/a/voiture-occasion/honda/civic/1251757738A1KVVOHOCIV",
        "https://www.paruvendu.fr/a/voiture-occasion/honda/cr-v/1251577966A1KVVOHOCRV",
        "https://www.paruvendu.fr/a/voiture-occasion/honda/civic/1251171160A1KVVOHOCIV",
        "https://www.paruvendu.fr/a/voiture-occasion/honda/civic/1251168904A1KVVOHOCIV",
        "https://www.paruvendu.fr/a/voiture-occasion/honda/civic/1248636487A1KVVOHOCIV",
        "https://www.paruvendu.fr/a/voiture-occasion/honda/hr-v/1249952222A1KVVOHOHRV",
        "https://www.paruvendu.fr/a/voiture-occasion/honda/crx/1243016581A1KVVOHOCRX",
        "https://www.paruvendu.fr/a/voiture-occasion/honda/accord/1248043247A1KVVOHOACC",
        "https://www.paruvendu.fr/a/voiture-occasion/honda/civic/1247176940A1KVVOHOCIV",
        "https://www.paruvendu.fr/a/voiture-occasion/honda/accord/1235431315A1KVVOHOACC",
        "https://www.paruvendu.fr/a/voiture-occasion/honda/cr-v/1237470457A1KVVOHOCRV",
        "https://www.paruvendu.fr/a/voiture-occasion/honda/cr-v/1241200990A1KVVOHOCRV",
        "https://www.paruvendu.fr/a/voiture-occasion/honda/civic/1239485909A1KVVOHOCIV",
        "https://www.paruvendu.fr/a/voiture-occasion/honda/civic/1253192718A1KVVOHOCIV",
        "https://www.paruvendu.fr/a/voiture-occasion/honda/civic/1252808855A1KVVOHOCIV",
        "https://www.paruvendu.fr/a/voiture-occasion/honda/jazz/1251954885A1KVVOHOJAZ",
        "https://www.paruvendu.fr/a/voiture-occasion/honda/divers/1250899980A1KVVOHOZZZ",
        "https://www.paruvendu.fr/a/voiture-occasion/honda/divers/1250899978A1KVVOHOZZZ",
        "https://www.paruvendu.fr/a/voiture-occasion/honda/divers/1250899975A1KVVOHOZZZ",
        "https://www.paruvendu.fr/a/voiture-occasion/honda/divers/1250899974A1KVVOHOZZZ",
        "https://www.paruvendu.fr/a/voiture-occasion/honda/divers/1250899973A1KVVOHOZZZ",
        "https://www.paruvendu.fr/a/voiture-occasion/honda/divers/1251446301A1KVVOHOZZZ",
        "https://www.paruvendu.fr/a/voiture-occasion/honda/jazz/1252156888A1KVVOHOJAZ",
        "https://www.paruvendu.fr/a/voiture-occasion/honda/divers/1252156893A1KVVOHOZZZ",
        "https://www.paruvendu.fr/a/voiture-occasion/honda/cr-v/1252156886A1KVVOHOCRV",
        "https://www.paruvendu.fr/a/voiture-occasion/honda/jazz/1253151844A1KVVOHOJAZ",
        "https://www.paruvendu.fr/a/voiture-occasion/honda/hr-v/1253122345A1KVVOHOHRV",
        "https://www.paruvendu.fr/a/voiture-occasion/honda/hr-v/1253122344A1KVVOHOHRV",
        "https://www.paruvendu.fr/a/voiture-occasion/honda/jazz/1252394270A1KVVOHOJAZ",
        "https://www.paruvendu.fr/a/voiture-occasion/honda/jazz/1250612796A1KVVOHOJAZ",
        "https://www.paruvendu.fr/a/voiture-occasion/honda/cr-v/1250612790A1KVVOHOCRV",
        "https://www.paruvendu.fr/a/voiture-occasion/honda/cr-v/1241320645A1KVVOHOCRV",
        "https://www.paruvendu.fr/a/voiture-occasion/honda/cr-v/1241320647A1KVVOHOCRV",
        "https://www.paruvendu.fr/a/voiture-occasion/honda/divers/1252176960A1KVVOHOZZZ",
        "https://www.paruvendu.fr/a/voiture-occasion/honda/civic/1252430936A1KVVOHOCIV",
        "https://www.paruvendu.fr/a/voiture-occasion/honda/civic/1252433492A1KVVOHOCIV",
        "https://www.paruvendu.fr/a/voiture-occasion/honda/civic/1252434343A1KVVOHOCIV",
        "https://www.paruvendu.fr/a/voiture-occasion/honda/civic/1252432453A1KVVOHOCIV",
        "https://www.paruvendu.fr/a/voiture-occasion/honda/civic/1252434942A1KVVOHOCIV",
        "https://www.paruvendu.fr/a/voiture-occasion/honda/civic/1252431964A1KVVOHOCIV",
        "https://www.paruvendu.fr/a/voiture-occasion/honda/civic/1252433928A1KVVOHOCIV",
        "https://www.paruvendu.fr/a/voiture-occasion/honda/civic/1252434353A1KVVOHOCIV",
        "https://www.paruvendu.fr/a/voiture-occasion/honda/civic/1252435392A1KVVOHOCIV",
        "https://www.paruvendu.fr/a/voiture-occasion/honda/civic/1252430691A1KVVOHOCIV",
        "https://www.paruvendu.fr/a/voiture-occasion/honda/civic/1252431441A1KVVOHOCIV",
        "https://www.paruvendu.fr/a/voiture-occasion/honda/civic/1252432971A1KVVOHOCIV",
        "https://www.paruvendu.fr/a/voiture-occasion/honda/civic/1252431698A1KVVOHOCIV",
        "https://www.paruvendu.fr/a/voiture-occasion/honda/civic/1252431188A1KVVOHOCIV",
        "https://www.paruvendu.fr/a/voiture-occasion/honda/civic/1252430459A1KVVOHOCIV",
        "https://www.paruvendu.fr/a/voiture-occasion/honda/civic/1252433238A1KVVOHOCIV",
        "https://www.paruvendu.fr/a/voiture-occasion/honda/civic/1252429959A1KVVOHOCIV",
        "https://www.paruvendu.fr/a/voiture-occasion/honda/civic/1252429271A1KVVOHOCIV",
        "https://www.paruvendu.fr/a/voiture-occasion/honda/civic/1252428630A1KVVOHOCIV",
        "https://www.paruvendu.fr/a/voiture-occasion/honda/civic/1252429668A1KVVOHOCIV",
        "https://www.paruvendu.fr/a/voiture-occasion/honda/civic/1252428955A1KVVOHOCIV",
        "https://www.paruvendu.fr/a/voiture-occasion/honda/civic/1252432715A1KVVOHOCIV",
        "https://www.paruvendu.fr/a/voiture-occasion/honda/civic/1252428114A1KVVOHOCIV",
        "https://www.paruvendu.fr/a/voiture-occasion/honda/civic/1252428348A1KVVOHOCIV",
        "https://www.paruvendu.fr/a/voiture-occasion/honda/civic/1252427876A1KVVOHOCIV",
        "https://www.paruvendu.fr/a/voiture-occasion/honda/civic/1252427387A1KVVOHOCIV",
        "https://www.paruvendu.fr/a/voiture-occasion/honda/civic/1252427624A1KVVOHOCIV",
        "https://www.paruvendu.fr/a/voiture-occasion/honda/civic/1252435696A1KVVOHOCIV",
        "https://www.paruvendu.fr/a/voiture-occasion/honda/civic/1252430210A1KVVOHOCIV",
        "https://www.paruvendu.fr/a/voiture-occasion/honda/civic/1253103106A1KVVOHOCIV",
        "https://www.paruvendu.fr/a/voiture-occasion/honda/civic/1253101326A1KVVOHOCIV",
        "https://www.paruvendu.fr/a/voiture-occasion/honda/civic/1253102614A1KVVOHOCIV",
        "https://www.paruvendu.fr/a/voiture-occasion/honda/civic/1253101209A1KVVOHOCIV",
        "https://www.paruvendu.fr/a/voiture-occasion/honda/civic/1253102093A1KVVOHOCIV",
        "https://www.paruvendu.fr/a/voiture-occasion/honda/civic/1253102969A1KVVOHOCIV",
        "https://www.paruvendu.fr/a/voiture-occasion/honda/civic/1253101439A1KVVOHOCIV",
        "https://www.paruvendu.fr/a/voiture-occasion/honda/civic/1253100992A1KVVOHOCIV",
        "https://www.paruvendu.fr/a/voiture-occasion/honda/civic/1253102338A1KVVOHOCIV",
        "https://www.paruvendu.fr/a/voiture-occasion/honda/civic/1253101590A1KVVOHOCIV",
        "https://www.paruvendu.fr/a/voiture-occasion/honda/civic/1253101942A1KVVOHOCIV",
        "https://www.paruvendu.fr/a/voiture-occasion/honda/civic/1253099614A1KVVOHOCIV",
        "https://www.paruvendu.fr/a/voiture-occasion/honda/civic/1253100617A1KVVOHOCIV",
        "https://www.paruvendu.fr/a/voiture-occasion/honda/civic/1253100346A1KVVOHOCIV",
        "https://www.paruvendu.fr/a/voiture-occasion/honda/civic/1253100871A1KVVOHOCIV",
        "https://www.paruvendu.fr/a/voiture-occasion/honda/civic/1253100753A1KVVOHOCIV",
        "https://www.paruvendu.fr/a/voiture-occasion/honda/civic/1253100480A1KVVOHOCIV",
        "https://www.paruvendu.fr/a/voiture-occasion/honda/civic/1253099492A1KVVOHOCIV",
        "https://www.paruvendu.fr/a/voiture-occasion/honda/civic/1253099850A1KVVOHOCIV",
        "https://www.paruvendu.fr/a/voiture-occasion/honda/civic/1253100211A1KVVOHOCIV",
        "https://www.paruvendu.fr/a/voiture-occasion/honda/civic/1253100078A1KVVOHOCIV",
        "https://www.paruvendu.fr/a/voiture-occasion/honda/civic/1253099962A1KVVOHOCIV",
        "https://www.paruvendu.fr/a/voiture-occasion/honda/civic/1253099726A1KVVOHOCIV",
        "https://www.paruvendu.fr/a/voiture-occasion/honda/civic/1253102776A1KVVOHOCIV",
        "https://www.paruvendu.fr/a/voiture-occasion/honda/civic/1253101825A1KVVOHOCIV",
        "https://www.paruvendu.fr/a/voiture-occasion/honda/civic/1253102209A1KVVOHOCIV",
        "https://www.paruvendu.fr/a/voiture-occasion/honda/civic/1253102450A1KVVOHOCIV",
        "https://www.paruvendu.fr/a/voiture-occasion/honda/civic/1253099243A1KVVOHOCIV",
        "https://www.paruvendu.fr/a/voiture-occasion/honda/civic/1253099379A1KVVOHOCIV",
        "https://www.paruvendu.fr/a/voiture-occasion/honda/civic/1252865521A1KVVOHOCIV",
        "https://www.paruvendu.fr/a/voiture-occasion/honda/civic/1252864387A1KVVOHOCIV",
        "https://www.paruvendu.fr/a/voiture-occasion/honda/civic/1252861824A1KVVOHOCIV",
        "https://www.paruvendu.fr/a/voiture-occasion/honda/civic/1252860660A1KVVOHOCIV",
        "https://www.paruvendu.fr/a/voiture-occasion/honda/civic/1252856978A1KVVOHOCIV",
        "https://www.paruvendu.fr/a/voiture-occasion/honda/civic/1252863284A1KVVOHOCIV",
        "https://www.paruvendu.fr/a/voiture-occasion/honda/civic/1252855781A1KVVOHOCIV",
        "https://www.paruvendu.fr/a/voiture-occasion/honda/civic/1252854582A1KVVOHOCIV",
        "https://www.paruvendu.fr/a/voiture-occasion/honda/civic/1252852220A1KVVOHOCIV",
        "https://www.paruvendu.fr/a/voiture-occasion/honda/civic/1252853492A1KVVOHOCIV",
        "https://www.paruvendu.fr/a/voiture-occasion/honda/civic/1252849561A1KVVOHOCIV",
        "https://www.paruvendu.fr/a/voiture-occasion/honda/civic/1252835153A1KVVOHOCIV",
        "https://www.paruvendu.fr/a/voiture-occasion/honda/civic/1252851104A1KVVOHOCIV",
        "https://www.paruvendu.fr/a/voiture-occasion/honda/civic/1252847836A1KVVOHOCIV",
        "https://www.paruvendu.fr/a/voiture-occasion/honda/civic/1252846526A1KVVOHOCIV",
        "https://www.paruvendu.fr/a/voiture-occasion/honda/civic/1252859435A1KVVOHOCIV",
        "https://www.paruvendu.fr/a/voiture-occasion/honda/civic/1252845368A1KVVOHOCIV",
        "https://www.paruvendu.fr/a/voiture-occasion/honda/civic/1252844250A1KVVOHOCIV",
        "https://www.paruvendu.fr/a/voiture-occasion/honda/civic/1252843131A1KVVOHOCIV",
        "https://www.paruvendu.fr/a/voiture-occasion/honda/civic/1252841931A1KVVOHOCIV",
        "https://www.paruvendu.fr/a/voiture-occasion/honda/civic/1252840847A1KVVOHOCIV",
        "https://www.paruvendu.fr/a/voiture-occasion/honda/civic/1252838367A1KVVOHOCIV",
        "https://www.paruvendu.fr/a/voiture-occasion/honda/civic/1252836937A1KVVOHOCIV",
        "https://www.paruvendu.fr/a/voiture-occasion/honda/civic/1252839695A1KVVOHOCIV",
        "https://www.paruvendu.fr/a/voiture-occasion/honda/civic/1252833799A1KVVOHOCIV",
        "https://www.paruvendu.fr/a/voiture-occasion/honda/civic/1252832797A1KVVOHOCIV",
        "https://www.paruvendu.fr/a/voiture-occasion/honda/civic/1252831740A1KVVOHOCIV",
        "https://www.paruvendu.fr/a/voiture-occasion/honda/civic/1252830696A1KVVOHOCIV",
        "https://www.paruvendu.fr/a/voiture-occasion/honda/civic/1252829669A1KVVOHOCIV",
        "https://www.paruvendu.fr/a/voiture-occasion/honda/jazz/1253391449A1KVVOHOJAZ",
        "https://www.paruvendu.fr/a/voiture-occasion/honda/hr-v/1253472059A1KVVOHOHRV",
        "https://www.paruvendu.fr/a/voiture-occasion/honda/cr-v/1253455728A1KVVOHOCRV",
        "https://www.paruvendu.fr/a/voiture-occasion/honda/civic/1253450522A1KVVOHOCIV",
        "https://www.paruvendu.fr/a/voiture-occasion/honda/jazz/1253450068A1KVVOHOJAZ",
        "https://www.paruvendu.fr/a/voiture-occasion/honda/jazz/1253448890A1KVVOHOJAZ",
        "https://www.paruvendu.fr/a/voiture-occasion/honda/civic/1253445735A1KVVOHOCIV",
        "https://www.paruvendu.fr/a/voiture-occasion/honda/cr-v/1253445730A1KVVOHOCRV",
        "https://www.paruvendu.fr/a/voiture-occasion/honda/cr-v/1253445123A1KVVOHOCRV",
        "https://www.paruvendu.fr/a/voiture-occasion/honda/jazz/1253445202A1KVVOHOJAZ",
        "https://www.paruvendu.fr/a/voiture-occasion/honda/civic/1253363630A1KVVOHOCIV",
        "https://www.paruvendu.fr/a/voiture-occasion/honda/jazz/1253360380A1KVVOHOJAZ",
        "https://www.paruvendu.fr/a/voiture-occasion/honda/cr-v/1253359425A1KVVOHOCRV",
        "https://www.paruvendu.fr/a/voiture-occasion/honda/divers/1253350349A1KVVOHOZZZ",
        "https://www.paruvendu.fr/a/voiture-occasion/honda/civic/1253344341A1KVVOHOCIV",
        "https://www.paruvendu.fr/a/voiture-occasion/honda/civic/1253344337A1KVVOHOCIV",
        "https://www.paruvendu.fr/a/voiture-occasion/honda/civic/1253344330A1KVVOHOCIV",
        "https://www.paruvendu.fr/a/voiture-occasion/honda/civic/1253343459A1KVVOHOCIV",
        "https://www.paruvendu.fr/a/voiture-occasion/honda/cr-v/1253331488A1KVVOHOCRV",
        "https://www.paruvendu.fr/a/voiture-occasion/honda/civic/1253326373A1KVVOHOCIV",
        "https://www.paruvendu.fr/a/voiture-occasion/honda/civic/1253323867A1KVVOHOCIV",
        "https://www.paruvendu.fr/a/voiture-occasion/honda/hr-v/1253320542A1KVVOHOHRV",
        "https://www.paruvendu.fr/a/voiture-occasion/honda/hr-v/1253319328A1KVVOHOHRV",
        "https://www.paruvendu.fr/a/voiture-occasion/honda/hr-v/1253311077A1KVVOHOHRV",
        "https://www.paruvendu.fr/a/voiture-occasion/honda/civic/1253241713A1KVVOHOCIV",
        "https://www.paruvendu.fr/a/voiture-occasion/honda/civic/1253323000A1KVVOHOCIV",
        "https://www.paruvendu.fr/a/voiture-occasion/honda/divers/1253445544A1KVVOHOZZZ",
        "https://www.paruvendu.fr/a/voiture-occasion/honda/hr-v/1253373001A1KVVOHOHRV",
        "https://www.paruvendu.fr/a/voiture-occasion/honda/civic/1253579679A1KVVOHOCIV",
        "https://www.paruvendu.fr/a/voiture-occasion/honda/civic/1253541324A1KVVOHOCIV",
        "https://www.paruvendu.fr/a/voiture-occasion/honda/cr-v/1253637806A1KVVOHOCRV",
        "https://www.paruvendu.fr/a/voiture-occasion/honda/civic/1253573011A1KVVOHOCIV",
        "https://www.paruvendu.fr/a/voiture-occasion/honda/civic/1253553680A1KVVOHOCIV",
        "https://www.paruvendu.fr/a/voiture-occasion/honda/accord/1253537621A1KVVOHOACC",
        "https://www.paruvendu.fr/a/voiture-occasion/honda/civic/1253530225A1KVVOHOCIV",
        "https://www.paruvendu.fr/a/voiture-occasion/honda/civic/1253530197A1KVVOHOCIV",
        "https://www.paruvendu.fr/a/voiture-occasion/honda/civic/1253527752A1KVVOHOCIV",
        "https://www.paruvendu.fr/a/voiture-occasion/honda/civic/1253527474A1KVVOHOCIV",
        "https://www.paruvendu.fr/a/voiture-occasion/honda/cr-v/1253523884A1KVVOHOCRV",
        "https://www.paruvendu.fr/a/voiture-occasion/honda/jazz/1253524931A1KVVOHOJAZ",
        "https://www.paruvendu.fr/a/voiture-occasion/honda/cr-v/1253519037A1KVVOHOCRV",
        "https://www.paruvendu.fr/a/voiture-occasion/honda/civic/1253513371A1KVVOHOCIV",
        "https://www.paruvendu.fr/a/voiture-occasion/honda/civic/1253513140A1KVVOHOCIV",
        "https://www.paruvendu.fr/a/voiture-occasion/honda/cr-v/1253495206A1KVVOHOCRV",
        "https://www.paruvendu.fr/a/voiture-occasion/honda/integra/1253289140A1KVVOHOINT",
        "https://www.paruvendu.fr/a/voiture-occasion/honda/accord/1253501673A1KVVOHOACC",
        "https://www.paruvendu.fr/a/voiture-occasion/honda/civic/1253586698A1KVVOHOCIV",
        "https://www.paruvendu.fr/a/voiture-occasion/honda/civic/1253653064A1KVVOHOCIV",
        "https://www.paruvendu.fr/a/voiture-occasion/honda/civic/1253735335A1KVVOHOCIV",
        "https://www.paruvendu.fr/a/voiture-occasion/honda/civic/1253724917A1KVVOHOCIV",
        "https://www.paruvendu.fr/a/voiture-occasion/honda/civic/1253722399A1KVVOHOCIV",
        "https://www.paruvendu.fr/a/voiture-occasion/honda/civic/1253720337A1KVVOHOCIV",
        "https://www.paruvendu.fr/a/voiture-occasion/honda/civic/1253719848A1KVVOHOCIV",
        "https://www.paruvendu.fr/a/voiture-occasion/honda/civic/1253719582A1KVVOHOCIV",
        "https://www.paruvendu.fr/a/voiture-occasion/honda/cr-v/1253711771A1KVVOHOCRV",
        "https://www.paruvendu.fr/a/voiture-occasion/honda/civic/1253695384A1KVVOHOCIV",
        "https://www.paruvendu.fr/a/voiture-occasion/honda/civic/1253674621A1KVVOHOCIV"
    ]
}