{
    "manufacturer": "talbot",
    "links": [
        "https://www.paruvendu.fr/a/voiture-occasion/talbot/samba/1251791146A1KVVOTASAM",
        "https://www.paruvendu.fr/a/collection/voiture-ancienne/talbot/1243604650A1KVCOVO000",
        "https://www.paruvendu.fr/a/collection/voiture-ancienne/talbot/1246782434A1KVCOVO000"
    ]
}