{
    "manufacturer": "aston-martin",
    "links": [
        "https://www.paruvendu.fr/a/voiture-occasion/aston-martin/db9/1252015332A1KVVOAMDB9",
        "https://www.paruvendu.fr/a/voiture-occasion/aston-martin/vantage/1251675717A1KVVOAMVTG",
        "https://www.paruvendu.fr/a/voiture-occasion/aston-martin/vantage/1251675718A1KVVOAMVTG",
        "https://www.paruvendu.fr/a/voiture-occasion/aston-martin/vanquish/1246647222A1KVVOAMVAN",
        "https://www.paruvendu.fr/a/voiture-occasion/aston-martin/db9/1251805248A1KVVOAMDB9",
        "https://www.paruvendu.fr/a/voiture-occasion/aston-martin/rapide/1253145643A1KVVOAMRAP",
        "https://www.paruvendu.fr/a/voiture-occasion/aston-martin/db7/1248374140A1KVVOAMDB7",
        "https://www.paruvendu.fr/a/voiture-occasion/aston-martin/vanquish/1252366765A1KVVOAMVAN",
        "https://www.paruvendu.fr/a/voiture-occasion/aston-martin/vanquish/1252586529A1KVVOAMVAN",
        "https://www.paruvendu.fr/a/voiture-occasion/aston-martin/vantage/1250899118A1KVVOAMVTG",
        "https://www.paruvendu.fr/a/voiture-occasion/aston-martin/db9/1251630068A1KVVOAMDB9",
        "https://www.paruvendu.fr/a/voiture-occasion/aston-martin/vantage/1251861816A1KVVOAMVTG",
        "https://www.paruvendu.fr/a/voiture-occasion/aston-martin/v8/1248374111A1KVVOAMV8",
        "https://www.paruvendu.fr/a/voiture-occasion/aston-martin/vantage/1252839783A1KVVOAMVTG",
        "https://www.paruvendu.fr/a/voiture-occasion/aston-martin/vantage/1252839789A1KVVOAMVTG",
        "https://www.paruvendu.fr/a/voiture-occasion/aston-martin/vantage/1252839786A1KVVOAMVTG",
        "https://www.paruvendu.fr/a/voiture-occasion/aston-martin/v8/1251273295A1KVVOAMV8",
        "https://www.paruvendu.fr/a/voiture-occasion/aston-martin/divers/1252762315A1KVVOAMZZZ",
        "https://www.paruvendu.fr/a/voiture-occasion/aston-martin/vantage/1250555593A1KVVOAMVTG",
        "https://www.paruvendu.fr/a/voiture-occasion/aston-martin/divers/1251471498A1KVVOAMZZZ",
        "https://www.paruvendu.fr/a/voiture-occasion/aston-martin/vantage/1252740992A1KVVOAMVTG",
        "https://www.paruvendu.fr/a/voiture-occasion/aston-martin/divers/1252680428A1KVVOAMZZZ",
        "https://www.paruvendu.fr/a/voiture-occasion/aston-martin/vantage/1252675168A1KVVOAMVTG",
        "https://www.paruvendu.fr/a/voiture-occasion/aston-martin/vantage/1253055094A1KVVOAMVTG",
        "https://www.paruvendu.fr/a/voiture-occasion/aston-martin/v8/1241563959A1KVVOAMV8",
        "https://www.paruvendu.fr/a/voiture-occasion/aston-martin/vantage/1252483094A1KVVOAMVTG",
        "https://www.paruvendu.fr/a/voiture-occasion/aston-martin/vantage/1247772569A1KVVOAMVTG",
        "https://www.paruvendu.fr/a/voiture-occasion/aston-martin/db9/1245884220A1KVVOAMDB9",
        "https://www.paruvendu.fr/a/voiture-occasion/aston-martin/rapide/1252286879A1KVVOAMRAP",
        "https://www.paruvendu.fr/a/voiture-occasion/aston-martin/v8/1241331524A1KVVOAMV8",
        "https://www.paruvendu.fr/a/voiture-occasion/aston-martin/rapide/1241330999A1KVVOAMRAP",
        "https://www.paruvendu.fr/a/voiture-occasion/aston-martin/rapide/1249164700A1KVVOAMRAP",
        "https://www.paruvendu.fr/a/voiture-occasion/aston-martin/divers/1252123773A1KVVOAMZZZ",
        "https://www.paruvendu.fr/a/voiture-occasion/aston-martin/vantage/1249154643A1KVVOAMVTG",
        "https://www.paruvendu.fr/a/voiture-occasion/aston-martin/vanquish/1215857393A1KVVOAMVAN",
        "https://www.paruvendu.fr/a/voiture-occasion/aston-martin/vantage/1248916176A1KVVOAMVTG",
        "https://www.paruvendu.fr/a/voiture-occasion/aston-martin/rapide/1250419734A1KVVOAMRAP",
        "https://www.paruvendu.fr/a/voiture-occasion/aston-martin/db9/1250334407A1KVVOAMDB9",
        "https://www.paruvendu.fr/a/voiture-occasion/aston-martin/vantage/1250334408A1KVVOAMVTG",
        "https://www.paruvendu.fr/a/voiture-occasion/aston-martin/divers/1243376138A1KVVOAMZZZ",
        "https://www.paruvendu.fr/a/voiture-occasion/aston-martin/divers/1243376143A1KVVOAMZZZ",
        "https://www.paruvendu.fr/a/voiture-occasion/aston-martin/divers/1243376140A1KVVOAMZZZ",
        "https://www.paruvendu.fr/a/voiture-occasion/aston-martin/vantage/1239040948A1KVVOAMVTG",
        "https://www.paruvendu.fr/a/voiture-occasion/aston-martin/vantage/1233661005A1KVVOAMVTG",
        "https://www.paruvendu.fr/a/voiture-occasion/aston-martin/vantage/1241145205A1KVVOAMVTG",
        "https://www.paruvendu.fr/a/voiture-occasion/aston-martin/vantage/1233708809A1KVVOAMVTG",
        "https://www.paruvendu.fr/a/voiture-occasion/aston-martin/vantage/1241057233A1KVVOAMVTG",
        "https://www.paruvendu.fr/a/voiture-occasion/aston-martin/vantage/1233661008A1KVVOAMVTG",
        "https://www.paruvendu.fr/a/voiture-occasion/aston-martin/vantage/1233708799A1KVVOAMVTG",
        "https://www.paruvendu.fr/a/voiture-occasion/aston-martin/vantage/1241145201A1KVVOAMVTG",
        "https://www.paruvendu.fr/a/voiture-occasion/aston-martin/db9/1241145198A1KVVOAMDB9",
        "https://www.paruvendu.fr/a/voiture-occasion/aston-martin/vantage/1241145203A1KVVOAMVTG",
        "https://www.paruvendu.fr/a/voiture-occasion/aston-martin/vantage/1241145204A1KVVOAMVTG",
        "https://www.paruvendu.fr/a/voiture-occasion/aston-martin/db9/1241145200A1KVVOAMDB9",
        "https://www.paruvendu.fr/a/voiture-occasion/aston-martin/vantage/1233708793A1KVVOAMVTG",
        "https://www.paruvendu.fr/a/voiture-occasion/aston-martin/vantage/1233708802A1KVVOAMVTG",
        "https://www.paruvendu.fr/a/voiture-occasion/aston-martin/vantage/1233708805A1KVVOAMVTG",
        "https://www.paruvendu.fr/a/voiture-occasion/aston-martin/vantage/1249937132A1KVVOAMVTG",
        "https://www.paruvendu.fr/a/voiture-occasion/aston-martin/vantage/1253372728A1KVVOAMVTG",
        "https://www.paruvendu.fr/a/voiture-occasion/aston-martin/vantage/1253347741A1KVVOAMVTG",
        "https://www.paruvendu.fr/a/voiture-occasion/aston-martin/vantage/1253335076A1KVVOAMVTG",
        "https://www.paruvendu.fr/a/voiture-occasion/aston-martin/vantage/1253328329A1KVVOAMVTG",
        "https://www.paruvendu.fr/a/voiture-occasion/aston-martin/vantage/1253459813A1KVVOAMVTG",
        "https://www.paruvendu.fr/a/voiture-occasion/aston-martin/rapide/1253600013A1KVVOAMRAP",
        "https://www.paruvendu.fr/a/voiture-occasion/aston-martin/rapide/1253537498A1KVVOAMRAP",
        "https://www.paruvendu.fr/a/voiture-occasion/aston-martin/vantage/1253515906A1KVVOAMVTG",
        "https://www.paruvendu.fr/a/voiture-occasion/aston-martin/vantage/1253513132A1KVVOAMVTG",
        "https://www.paruvendu.fr/a/voiture-occasion/aston-martin/divers/1253709668A1KVVOAMZZZ",
        "https://www.paruvendu.fr/a/voiture-occasion/aston-martin/vanquish/1253709667A1KVVOAMVAN",
        "https://www.paruvendu.fr/a/voiture-occasion/aston-martin/vantage/1253679234A1KVVOAMVTG",
        "https://www.paruvendu.fr/a/voiture-occasion/aston-martin/vantage/1253675218A1KVVOAMVTG",
        "https://www.paruvendu.fr/a/voiture-occasion/aston-martin/vantage/1253694409A1KVVOAMVTG"
    ]
}