{
    "manufacturer": "abarth",
    "links": [
        "https://www.paruvendu.fr/a/voiture-occasion/abarth/500/1252286248A1KVVOAB500",
        "https://www.paruvendu.fr/a/voiture-occasion/abarth/500/1248219502A1KVVOAB500",
        "https://www.paruvendu.fr/a/voiture-occasion/abarth/1241374436A1KVVOAB000",
        "https://www.paruvendu.fr/a/voiture-occasion/abarth/abarth-124-spider/1253305669A1KVVOAB124",
        "https://www.paruvendu.fr/a/voiture-occasion/abarth/500/1252665881A1KVVOAB500",
        "https://www.paruvendu.fr/a/voiture-occasion/abarth/500/1252493021A1KVVOAB500",
        "https://www.paruvendu.fr/a/voiture-occasion/abarth/500/1252548347A1KVVOAB500",
        "https://www.paruvendu.fr/a/voiture-occasion/abarth/500/1252858022A1KVVOAB500",
        "https://www.paruvendu.fr/a/voiture-occasion/abarth/500/1253289102A1KVVOAB500",
        "https://www.paruvendu.fr/a/voiture-occasion/abarth/500/1253289101A1KVVOAB500",
        "https://www.paruvendu.fr/a/voiture-occasion/abarth/500/1253289099A1KVVOAB500",
        "https://www.paruvendu.fr/a/voiture-occasion/abarth/500/1253289100A1KVVOAB500",
        "https://www.paruvendu.fr/a/voiture-occasion/abarth/500/1253289098A1KVVOAB500",
        "https://www.paruvendu.fr/a/voiture-occasion/abarth/500/1253289097A1KVVOAB500",
        "https://www.paruvendu.fr/a/voiture-occasion/abarth/500/1253289096A1KVVOAB500",
        "https://www.paruvendu.fr/a/voiture-occasion/abarth/500/1253289094A1KVVOAB500",
        "https://www.paruvendu.fr/a/voiture-occasion/abarth/500/1253289095A1KVVOAB500",
        "https://www.paruvendu.fr/a/voiture-occasion/abarth/500/1253278762A1KVVOAB500",
        "https://www.paruvendu.fr/a/voiture-occasion/abarth/500/1253275192A1KVVOAB500",
        "https://www.paruvendu.fr/a/voiture-occasion/abarth/500/1253056886A1KVVOAB500",
        "https://www.paruvendu.fr/a/voiture-occasion/abarth/500/1251913307A1KVVOAB500",
        "https://www.paruvendu.fr/a/voiture-occasion/abarth/500/1253068288A1KVVOAB500",
        "https://www.paruvendu.fr/a/voiture-occasion/abarth/500/1252507755A1KVVOAB500",
        "https://www.paruvendu.fr/a/voiture-occasion/abarth/500/1252874646A1KVVOAB500",
        "https://www.paruvendu.fr/a/voiture-occasion/abarth/500/1242442936A1KVVOAB500",
        "https://www.paruvendu.fr/a/voiture-occasion/abarth/500/1253077802A1KVVOAB500",
        "https://www.paruvendu.fr/a/voiture-occasion/abarth/500/1252767628A1KVVOAB500",
        "https://www.paruvendu.fr/a/voiture-occasion/abarth/500/1252953458A1KVVOAB500",
        "https://www.paruvendu.fr/a/voiture-occasion/abarth/500/1252802961A1KVVOAB500",
        "https://www.paruvendu.fr/a/voiture-occasion/abarth/500/1251320148A1KVVOAB500",
        "https://www.paruvendu.fr/a/voiture-occasion/abarth/500/1251893798A1KVVOAB500",
        "https://www.paruvendu.fr/a/voiture-occasion/abarth/500/1252520107A1KVVOAB500",
        "https://www.paruvendu.fr/a/voiture-occasion/abarth/500/1250221753A1KVVOAB500",
        "https://www.paruvendu.fr/a/voiture-occasion/abarth/abarth-124-spider/1251295474A1KVVOAB124",
        "https://www.paruvendu.fr/a/voiture-occasion/abarth/500/1253127020A1KVVOAB500",
        "https://www.paruvendu.fr/a/voiture-occasion/abarth/500/1253138179A1KVVOAB500",
        "https://www.paruvendu.fr/a/voiture-occasion/abarth/500/1253129313A1KVVOAB500",
        "https://www.paruvendu.fr/a/voiture-occasion/abarth/500/1253124258A1KVVOAB500",
        "https://www.paruvendu.fr/a/voiture-occasion/abarth/500/1250198836A1KVVOAB500",
        "https://www.paruvendu.fr/a/voiture-occasion/abarth/grande-punto/1253118786A1KVVOABPUG",
        "https://www.paruvendu.fr/a/voiture-occasion/abarth/500/1253104446A1KVVOAB500",
        "https://www.paruvendu.fr/a/voiture-occasion/abarth/abarth-124-spider/1252697127A1KVVOAB124",
        "https://www.paruvendu.fr/a/voiture-occasion/abarth/500/1251662171A1KVVOAB500",
        "https://www.paruvendu.fr/a/voiture-occasion/abarth/500/1253077867A1KVVOAB500",
        "https://www.paruvendu.fr/a/voiture-occasion/abarth/500/1249118021A1KVVOAB500",
        "https://www.paruvendu.fr/a/voiture-occasion/abarth/500/1253209173A1KVVOAB500",
        "https://www.paruvendu.fr/a/voiture-occasion/abarth/500/1252425185A1KVVOAB500",
        "https://www.paruvendu.fr/a/voiture-occasion/abarth/500/1248056123A1KVVOAB500",
        "https://www.paruvendu.fr/a/voiture-occasion/abarth/500/1253068167A1KVVOAB500",
        "https://www.paruvendu.fr/a/voiture-occasion/abarth/500/1246462720A1KVVOAB500",
        "https://www.paruvendu.fr/a/voiture-occasion/abarth/500/1252567070A1KVVOAB500",
        "https://www.paruvendu.fr/a/voiture-occasion/abarth/500/1253016725A1KVVOAB500",
        "https://www.paruvendu.fr/a/voiture-occasion/abarth/500/1252987492A1KVVOAB500",
        "https://www.paruvendu.fr/a/voiture-occasion/abarth/500/1252985851A1KVVOAB500",
        "https://www.paruvendu.fr/a/voiture-occasion/abarth/500/1250465905A1KVVOAB500",
        "https://www.paruvendu.fr/a/voiture-occasion/abarth/500/1252965435A1KVVOAB500",
        "https://www.paruvendu.fr/a/voiture-occasion/abarth/500/1252002946A1KVVOAB500",
        "https://www.paruvendu.fr/a/voiture-occasion/abarth/500/1252950701A1KVVOAB500",
        "https://www.paruvendu.fr/a/voiture-occasion/abarth/500/1252933775A1KVVOAB500",
        "https://www.paruvendu.fr/a/voiture-occasion/abarth/500/1249969870A1KVVOAB500",
        "https://www.paruvendu.fr/a/voiture-occasion/abarth/500/1251407144A1KVVOAB500",
        "https://www.paruvendu.fr/a/voiture-occasion/abarth/500/1252914296A1KVVOAB500",
        "https://www.paruvendu.fr/a/voiture-occasion/abarth/500/1250128992A1KVVOAB500",
        "https://www.paruvendu.fr/a/voiture-occasion/abarth/abarth-124-spider/1252227402A1KVVOAB124",
        "https://www.paruvendu.fr/a/voiture-occasion/abarth/500/1251970675A1KVVOAB500",
        "https://www.paruvendu.fr/a/voiture-occasion/abarth/500/1253025321A1KVVOAB500",
        "https://www.paruvendu.fr/a/voiture-occasion/abarth/500/1251356842A1KVVOAB500",
        "https://www.paruvendu.fr/a/voiture-occasion/abarth/500/1252015584A1KVVOAB500",
        "https://www.paruvendu.fr/a/voiture-occasion/abarth/500/1252426935A1KVVOAB500",
        "https://www.paruvendu.fr/a/voiture-occasion/abarth/500/1252815914A1KVVOAB500",
        "https://www.paruvendu.fr/a/voiture-occasion/abarth/500/1239785241A1KVVOAB500",
        "https://www.paruvendu.fr/a/voiture-occasion/abarth/500/1251971262A1KVVOAB500",
        "https://www.paruvendu.fr/a/voiture-occasion/abarth/500/1251311794A1KVVOAB500",
        "https://www.paruvendu.fr/a/voiture-occasion/abarth/500/1252746721A1KVVOAB500",
        "https://www.paruvendu.fr/a/voiture-occasion/abarth/500/1251795445A1KVVOAB500",
        "https://www.paruvendu.fr/a/voiture-occasion/abarth/500/1252002873A1KVVOAB500",
        "https://www.paruvendu.fr/a/voiture-occasion/abarth/500/1252360834A1KVVOAB500",
        "https://www.paruvendu.fr/a/voiture-occasion/abarth/500/1252699731A1KVVOAB500",
        "https://www.paruvendu.fr/a/voiture-occasion/abarth/500/1252691460A1KVVOAB500",
        "https://www.paruvendu.fr/a/voiture-occasion/abarth/500/1248449115A1KVVOAB500",
        "https://www.paruvendu.fr/a/voiture-occasion/abarth/500/1252685030A1KVVOAB500",
        "https://www.paruvendu.fr/a/voiture-occasion/abarth/500/1252668646A1KVVOAB500",
        "https://www.paruvendu.fr/a/voiture-occasion/abarth/500/1252506898A1KVVOAB500",
        "https://www.paruvendu.fr/a/voiture-occasion/abarth/500/1252611457A1KVVOAB500",
        "https://www.paruvendu.fr/a/voiture-occasion/abarth/500/1252611386A1KVVOAB500",
        "https://www.paruvendu.fr/a/voiture-occasion/abarth/500/1249990034A1KVVOAB500",
        "https://www.paruvendu.fr/a/voiture-occasion/abarth/500/1250751759A1KVVOAB500",
        "https://www.paruvendu.fr/a/voiture-occasion/abarth/abarth-124-spider/1252519923A1KVVOAB124",
        "https://www.paruvendu.fr/a/voiture-occasion/abarth/500/1252571435A1KVVOAB500",
        "https://www.paruvendu.fr/a/voiture-occasion/abarth/500/1251628090A1KVVOAB500",
        "https://www.paruvendu.fr/a/voiture-occasion/abarth/500/1251056728A1KVVOAB500",
        "https://www.paruvendu.fr/a/voiture-occasion/abarth/500/1252507917A1KVVOAB500",
        "https://www.paruvendu.fr/a/voiture-occasion/abarth/500/1249669470A1KVVOAB500",
        "https://www.paruvendu.fr/a/voiture-occasion/abarth/500/1251387241A1KVVOAB500",
        "https://www.paruvendu.fr/a/voiture-occasion/abarth/500/1248600106A1KVVOAB500",
        "https://www.paruvendu.fr/a/voiture-occasion/abarth/500/1252481756A1KVVOAB500",
        "https://www.paruvendu.fr/a/voiture-occasion/abarth/500/1250363669A1KVVOAB500",
        "https://www.paruvendu.fr/a/voiture-occasion/abarth/500/1252454739A1KVVOAB500",
        "https://www.paruvendu.fr/a/voiture-occasion/abarth/500/1250933706A1KVVOAB500",
        "https://www.paruvendu.fr/a/voiture-occasion/abarth/500/1251708434A1KVVOAB500",
        "https://www.paruvendu.fr/a/voiture-occasion/abarth/500/1252410050A1KVVOAB500",
        "https://www.paruvendu.fr/a/voiture-occasion/abarth/500/1248920244A1KVVOAB500",
        "https://www.paruvendu.fr/a/voiture-occasion/abarth/500/1252358910A1KVVOAB500",
        "https://www.paruvendu.fr/a/voiture-occasion/abarth/500/1251900411A1KVVOAB500",
        "https://www.paruvendu.fr/a/voiture-occasion/abarth/500/1245763041A1KVVOAB500",
        "https://www.paruvendu.fr/a/voiture-occasion/abarth/500/1250786990A1KVVOAB500",
        "https://www.paruvendu.fr/a/voiture-occasion/abarth/abarth-124-spider/1241330173A1KVVOAB124",
        "https://www.paruvendu.fr/a/voiture-occasion/abarth/abarth-124-spider/1241330168A1KVVOAB124",
        "https://www.paruvendu.fr/a/voiture-occasion/abarth/abarth-124-spider/1241330169A1KVVOAB124",
        "https://www.paruvendu.fr/a/voiture-occasion/abarth/abarth-124-spider/1241330170A1KVVOAB124",
        "https://www.paruvendu.fr/a/voiture-occasion/abarth/abarth-124-spider/1241330171A1KVVOAB124",
        "https://www.paruvendu.fr/a/voiture-occasion/abarth/abarth-124-spider/1241330172A1KVVOAB124",
        "https://www.paruvendu.fr/a/voiture-occasion/abarth/500/1241329962A1KVVOAB500",
        "https://www.paruvendu.fr/a/voiture-occasion/abarth/500/1241329964A1KVVOAB500",
        "https://www.paruvendu.fr/a/voiture-occasion/abarth/500/1241329967A1KVVOAB500",
        "https://www.paruvendu.fr/a/voiture-occasion/abarth/500/1241329963A1KVVOAB500",
        "https://www.paruvendu.fr/a/voiture-occasion/abarth/500/1241329966A1KVVOAB500",
        "https://www.paruvendu.fr/a/voiture-occasion/abarth/500/1241329965A1KVVOAB500",
        "https://www.paruvendu.fr/a/voiture-occasion/abarth/500/1241329959A1KVVOAB500",
        "https://www.paruvendu.fr/a/voiture-occasion/abarth/500/1241330003A1KVVOAB500",
        "https://www.paruvendu.fr/a/voiture-occasion/abarth/500/1241329960A1KVVOAB500",
        "https://www.paruvendu.fr/a/voiture-occasion/abarth/500/1241329961A1KVVOAB500",
        "https://www.paruvendu.fr/a/voiture-occasion/abarth/500/1241322030A1KVVOAB500",
        "https://www.paruvendu.fr/a/voiture-occasion/abarth/500/1252231112A1KVVOAB500",
        "https://www.paruvendu.fr/a/voiture-occasion/abarth/500/1252211753A1KVVOAB500",
        "https://www.paruvendu.fr/a/voiture-occasion/abarth/500/1247565320A1KVVOAB500",
        "https://www.paruvendu.fr/a/voiture-occasion/abarth/500/1245582880A1KVVOAB500",
        "https://www.paruvendu.fr/a/voiture-occasion/abarth/500/1245582882A1KVVOAB500",
        "https://www.paruvendu.fr/a/voiture-occasion/abarth/500/1245582883A1KVVOAB500",
        "https://www.paruvendu.fr/a/voiture-occasion/abarth/500/1245582884A1KVVOAB500",
        "https://www.paruvendu.fr/a/voiture-occasion/abarth/500/1245582885A1KVVOAB500",
        "https://www.paruvendu.fr/a/voiture-occasion/abarth/500/1252189727A1KVVOAB500",
        "https://www.paruvendu.fr/a/voiture-occasion/abarth/500/1250511051A1KVVOAB500",
        "https://www.paruvendu.fr/a/voiture-occasion/abarth/500/1252150149A1KVVOAB500",
        "https://www.paruvendu.fr/a/voiture-occasion/abarth/500/1251977123A1KVVOAB500",
        "https://www.paruvendu.fr/a/voiture-occasion/abarth/500/1252014052A1KVVOAB500",
        "https://www.paruvendu.fr/a/voiture-occasion/abarth/500/1251977124A1KVVOAB500",
        "https://www.paruvendu.fr/a/voiture-occasion/abarth/500/1247810452A1KVVOAB500",
        "https://www.paruvendu.fr/a/voiture-occasion/abarth/500/1250271654A1KVVOAB500",
        "https://www.paruvendu.fr/a/voiture-occasion/abarth/500/1251912035A1KVVOAB500",
        "https://www.paruvendu.fr/a/voiture-occasion/abarth/500/1251864856A1KVVOAB500",
        "https://www.paruvendu.fr/a/voiture-occasion/abarth/500/1243375372A1KVVOAB500",
        "https://www.paruvendu.fr/a/voiture-occasion/abarth/500/1243375373A1KVVOAB500",
        "https://www.paruvendu.fr/a/voiture-occasion/abarth/500/1243375376A1KVVOAB500",
        "https://www.paruvendu.fr/a/voiture-occasion/abarth/500/1243375375A1KVVOAB500",
        "https://www.paruvendu.fr/a/voiture-occasion/abarth/500/1243375374A1KVVOAB500",
        "https://www.paruvendu.fr/a/voiture-occasion/abarth/500/1243375378A1KVVOAB500",
        "https://www.paruvendu.fr/a/voiture-occasion/abarth/500/1243375379A1KVVOAB500",
        "https://www.paruvendu.fr/a/voiture-occasion/abarth/500/1243375377A1KVVOAB500",
        "https://www.paruvendu.fr/a/voiture-occasion/abarth/500/1243375380A1KVVOAB500",
        "https://www.paruvendu.fr/a/voiture-occasion/abarth/500/1243375381A1KVVOAB500",
        "https://www.paruvendu.fr/a/voiture-occasion/abarth/500/1243375394A1KVVOAB500",
        "https://www.paruvendu.fr/a/voiture-occasion/abarth/500/1243375393A1KVVOAB500",
        "https://www.paruvendu.fr/a/voiture-occasion/abarth/500/1243375395A1KVVOAB500",
        "https://www.paruvendu.fr/a/voiture-occasion/abarth/500/1243375396A1KVVOAB500",
        "https://www.paruvendu.fr/a/voiture-occasion/abarth/500/1243375398A1KVVOAB500",
        "https://www.paruvendu.fr/a/voiture-occasion/abarth/500/1243375403A1KVVOAB500",
        "https://www.paruvendu.fr/a/voiture-occasion/abarth/500/1243375402A1KVVOAB500",
        "https://www.paruvendu.fr/a/voiture-occasion/abarth/500/1243375401A1KVVOAB500",
        "https://www.paruvendu.fr/a/voiture-occasion/abarth/500/1243375400A1KVVOAB500",
        "https://www.paruvendu.fr/a/voiture-occasion/abarth/500/1243375397A1KVVOAB500",
        "https://www.paruvendu.fr/a/voiture-occasion/abarth/500/1243375399A1KVVOAB500",
        "https://www.paruvendu.fr/a/voiture-occasion/abarth/500/1243375405A1KVVOAB500",
        "https://www.paruvendu.fr/a/voiture-occasion/abarth/500/1243375404A1KVVOAB500",
        "https://www.paruvendu.fr/a/voiture-occasion/abarth/500/1243375407A1KVVOAB500",
        "https://www.paruvendu.fr/a/voiture-occasion/abarth/500/1243375406A1KVVOAB500",
        "https://www.paruvendu.fr/a/voiture-occasion/abarth/500/1243375358A1KVVOAB500",
        "https://www.paruvendu.fr/a/voiture-occasion/abarth/500/1243375359A1KVVOAB500",
        "https://www.paruvendu.fr/a/voiture-occasion/abarth/500/1243375363A1KVVOAB500",
        "https://www.paruvendu.fr/a/voiture-occasion/abarth/500/1243375362A1KVVOAB500",
        "https://www.paruvendu.fr/a/voiture-occasion/abarth/500/1243375366A1KVVOAB500",
        "https://www.paruvendu.fr/a/voiture-occasion/abarth/500/1243375364A1KVVOAB500",
        "https://www.paruvendu.fr/a/voiture-occasion/abarth/500/1243375371A1KVVOAB500",
        "https://www.paruvendu.fr/a/voiture-occasion/abarth/500/1243375365A1KVVOAB500",
        "https://www.paruvendu.fr/a/voiture-occasion/abarth/500/1243375368A1KVVOAB500",
        "https://www.paruvendu.fr/a/voiture-occasion/abarth/500/1243375367A1KVVOAB500",
        "https://www.paruvendu.fr/a/voiture-occasion/abarth/500/1243375370A1KVVOAB500",
        "https://www.paruvendu.fr/a/voiture-occasion/abarth/500/1243375369A1KVVOAB500",
        "https://www.paruvendu.fr/a/voiture-occasion/abarth/abarth-124-spider/1249617671A1KVVOAB124",
        "https://www.paruvendu.fr/a/voiture-occasion/abarth/500/1250721203A1KVVOAB500",
        "https://www.paruvendu.fr/a/voiture-occasion/abarth/500/1245582881A1KVVOAB500",
        "https://www.paruvendu.fr/a/voiture-occasion/abarth/500/1252924989A1KVVOAB500",
        "https://www.paruvendu.fr/a/voiture-occasion/abarth/500/1251404377A1KVVOAB500",
        "https://www.paruvendu.fr/a/voiture-occasion/abarth/500/1248766703A1KVVOAB500",
        "https://www.paruvendu.fr/a/voiture-occasion/abarth/500/1253139554A1KVVOAB500",
        "https://www.paruvendu.fr/a/voiture-occasion/abarth/500/1253138055A1KVVOAB500",
        "https://www.paruvendu.fr/a/voiture-occasion/abarth/500/1253137934A1KVVOAB500",
        "https://www.paruvendu.fr/a/voiture-occasion/abarth/500/1253137727A1KVVOAB500",
        "https://www.paruvendu.fr/a/voiture-occasion/abarth/500/1253136909A1KVVOAB500",
        "https://www.paruvendu.fr/a/voiture-occasion/abarth/500/1253136786A1KVVOAB500",
        "https://www.paruvendu.fr/a/voiture-occasion/abarth/500/1253136661A1KVVOAB500",
        "https://www.paruvendu.fr/a/voiture-occasion/abarth/500/1253136515A1KVVOAB500",
        "https://www.paruvendu.fr/a/voiture-occasion/abarth/500/1253124261A1KVVOAB500",
        "https://www.paruvendu.fr/a/voiture-occasion/abarth/500/1253123042A1KVVOAB500",
        "https://www.paruvendu.fr/a/voiture-occasion/abarth/500/1253123040A1KVVOAB500",
        "https://www.paruvendu.fr/a/voiture-occasion/abarth/500/1253035134A1KVVOAB500",
        "https://www.paruvendu.fr/a/voiture-occasion/abarth/500/1252203836A1KVVOAB500",
        "https://www.paruvendu.fr/a/voiture-occasion/abarth/500/1251525030A1KVVOAB500",
        "https://www.paruvendu.fr/a/voiture-occasion/abarth/500/1252585972A1KVVOAB500",
        "https://www.paruvendu.fr/a/voiture-occasion/abarth/500/1252022901A1KVVOAB500",
        "https://www.paruvendu.fr/a/voiture-occasion/abarth/500/1252554980A1KVVOAB500",
        "https://www.paruvendu.fr/a/voiture-occasion/abarth/500/1252860265A1KVVOAB500",
        "https://www.paruvendu.fr/a/voiture-occasion/abarth/500/1252554536A1KVVOAB500",
        "https://www.paruvendu.fr/a/voiture-occasion/abarth/500/1252856690A1KVVOAB500",
        "https://www.paruvendu.fr/a/voiture-occasion/abarth/500/1252552667A1KVVOAB500",
        "https://www.paruvendu.fr/a/voiture-occasion/abarth/500/1252863032A1KVVOAB500",
        "https://www.paruvendu.fr/a/voiture-occasion/abarth/500/1252550013A1KVVOAB500",
        "https://www.paruvendu.fr/a/voiture-occasion/abarth/500/1252847327A1KVVOAB500",
        "https://www.paruvendu.fr/a/voiture-occasion/abarth/500/1252553066A1KVVOAB500",
        "https://www.paruvendu.fr/a/voiture-occasion/abarth/500/1252846259A1KVVOAB500",
        "https://www.paruvendu.fr/a/voiture-occasion/abarth/500/1252549613A1KVVOAB500",
        "https://www.paruvendu.fr/a/voiture-occasion/abarth/500/1252840584A1KVVOAB500",
        "https://www.paruvendu.fr/a/voiture-occasion/abarth/500/1252548747A1KVVOAB500",
        "https://www.paruvendu.fr/a/voiture-occasion/abarth/500/1252851944A1KVVOAB500",
        "https://www.paruvendu.fr/a/voiture-occasion/abarth/500/1252552244A1KVVOAB500",
        "https://www.paruvendu.fr/a/voiture-occasion/abarth/500/1252854330A1KVVOAB500",
        "https://www.paruvendu.fr/a/voiture-occasion/abarth/500/1252554126A1KVVOAB500",
        "https://www.paruvendu.fr/a/voiture-occasion/abarth/500/1252850782A1KVVOAB500",
        "https://www.paruvendu.fr/a/voiture-occasion/abarth/500/1252547054A1KVVOAB500",
        "https://www.paruvendu.fr/a/voiture-occasion/abarth/500/1252842870A1KVVOAB500",
        "https://www.paruvendu.fr/a/voiture-occasion/abarth/500/1252549176A1KVVOAB500",
        "https://www.paruvendu.fr/a/voiture-occasion/abarth/500/1252855489A1KVVOAB500",
        "https://www.paruvendu.fr/a/voiture-occasion/abarth/500/1252550830A1KVVOAB500",
        "https://www.paruvendu.fr/a/voiture-occasion/abarth/500/1252853244A1KVVOAB500",
        "https://www.paruvendu.fr/a/voiture-occasion/abarth/500/1252547910A1KVVOAB500",
        "https://www.paruvendu.fr/a/voiture-occasion/abarth/500/1252859188A1KVVOAB500",
        "https://www.paruvendu.fr/a/voiture-occasion/abarth/500/1252547498A1KVVOAB500",
        "https://www.paruvendu.fr/a/voiture-occasion/abarth/500/1252845088A1KVVOAB500",
        "https://www.paruvendu.fr/a/voiture-occasion/abarth/500/1252546622A1KVVOAB500",
        "https://www.paruvendu.fr/a/voiture-occasion/abarth/500/1252861555A1KVVOAB500",
        "https://www.paruvendu.fr/a/voiture-occasion/abarth/500/1252551298A1KVVOAB500",
        "https://www.paruvendu.fr/a/voiture-occasion/abarth/500/1252865201A1KVVOAB500",
        "https://www.paruvendu.fr/a/voiture-occasion/abarth/500/1252545775A1KVVOAB500",
        "https://www.paruvendu.fr/a/voiture-occasion/abarth/500/1252864102A1KVVOAB500",
        "https://www.paruvendu.fr/a/voiture-occasion/abarth/500/1252545354A1KVVOAB500",
        "https://www.paruvendu.fr/a/voiture-occasion/abarth/500/1252839374A1KVVOAB500",
        "https://www.paruvendu.fr/a/voiture-occasion/abarth/500/1252544065A1KVVOAB500",
        "https://www.paruvendu.fr/a/voiture-occasion/abarth/500/1252834662A1KVVOAB500",
        "https://www.paruvendu.fr/a/voiture-occasion/abarth/500/1252544940A1KVVOAB500",
        "https://www.paruvendu.fr/a/voiture-occasion/abarth/500/1252838085A1KVVOAB500",
        "https://www.paruvendu.fr/a/voiture-occasion/abarth/500/1252544514A1KVVOAB500",
        "https://www.paruvendu.fr/a/voiture-occasion/abarth/500/1252836646A1KVVOAB500",
        "https://www.paruvendu.fr/a/voiture-occasion/abarth/500/1252550433A1KVVOAB500",
        "https://www.paruvendu.fr/a/voiture-occasion/abarth/500/1252849235A1KVVOAB500",
        "https://www.paruvendu.fr/a/voiture-occasion/abarth/500/1252543200A1KVVOAB500",
        "https://www.paruvendu.fr/a/voiture-occasion/abarth/500/1252832526A1KVVOAB500",
        "https://www.paruvendu.fr/a/voiture-occasion/abarth/500/1252543637A1KVVOAB500",
        "https://www.paruvendu.fr/a/voiture-occasion/abarth/500/1252833537A1KVVOAB500",
        "https://www.paruvendu.fr/a/voiture-occasion/abarth/500/1252542770A1KVVOAB500",
        "https://www.paruvendu.fr/a/voiture-occasion/abarth/500/1252831494A1KVVOAB500",
        "https://www.paruvendu.fr/a/voiture-occasion/abarth/500/1252541887A1KVVOAB500",
        "https://www.paruvendu.fr/a/voiture-occasion/abarth/500/1252829408A1KVVOAB500",
        "https://www.paruvendu.fr/a/voiture-occasion/abarth/500/1252542330A1KVVOAB500",
        "https://www.paruvendu.fr/a/voiture-occasion/abarth/500/1252830437A1KVVOAB500",
        "https://www.paruvendu.fr/a/voiture-occasion/abarth/500/1252551779A1KVVOAB500",
        "https://www.paruvendu.fr/a/voiture-occasion/abarth/500/1252841660A1KVVOAB500",
        "https://www.paruvendu.fr/a/voiture-occasion/abarth/500/1252546206A1KVVOAB500",
        "https://www.paruvendu.fr/a/voiture-occasion/abarth/500/1252843923A1KVVOAB500",
        "https://www.paruvendu.fr/a/voiture-occasion/abarth/500/1253079024A1KVVOAB500",
        "https://www.paruvendu.fr/a/voiture-occasion/abarth/500/1253078879A1KVVOAB500",
        "https://www.paruvendu.fr/a/voiture-occasion/abarth/500/1253078723A1KVVOAB500",
        "https://www.paruvendu.fr/a/voiture-occasion/abarth/500/1253078579A1KVVOAB500",
        "https://www.paruvendu.fr/a/voiture-occasion/abarth/500/1253078194A1KVVOAB500",
        "https://www.paruvendu.fr/a/voiture-occasion/abarth/500/1253078028A1KVVOAB500",
        "https://www.paruvendu.fr/a/voiture-occasion/abarth/500/1253076561A1KVVOAB500",
        "https://www.paruvendu.fr/a/voiture-occasion/abarth/500/1253076893A1KVVOAB500",
        "https://www.paruvendu.fr/a/voiture-occasion/abarth/500/1253077019A1KVVOAB500",
        "https://www.paruvendu.fr/a/voiture-occasion/abarth/500/1253077575A1KVVOAB500",
        "https://www.paruvendu.fr/a/voiture-occasion/abarth/500/1253077239A1KVVOAB500",
        "https://www.paruvendu.fr/a/voiture-occasion/abarth/500/1253076257A1KVVOAB500",
        "https://www.paruvendu.fr/a/voiture-occasion/abarth/500/1253075099A1KVVOAB500",
        "https://www.paruvendu.fr/a/voiture-occasion/abarth/500/1253076058A1KVVOAB500",
        "https://www.paruvendu.fr/a/voiture-occasion/abarth/500/1253074824A1KVVOAB500",
        "https://www.paruvendu.fr/a/voiture-occasion/abarth/500/1253074548A1KVVOAB500",
        "https://www.paruvendu.fr/a/voiture-occasion/abarth/500/1253074698A1KVVOAB500",
        "https://www.paruvendu.fr/a/voiture-occasion/abarth/500/1253074019A1KVVOAB500",
        "https://www.paruvendu.fr/a/voiture-occasion/abarth/500/1253074145A1KVVOAB500",
        "https://www.paruvendu.fr/a/voiture-occasion/abarth/500/1253074283A1KVVOAB500",
        "https://www.paruvendu.fr/a/voiture-occasion/abarth/500/1253073751A1KVVOAB500",
        "https://www.paruvendu.fr/a/voiture-occasion/abarth/500/1253074409A1KVVOAB500",
        "https://www.paruvendu.fr/a/voiture-occasion/abarth/500/1253075429A1KVVOAB500",
        "https://www.paruvendu.fr/a/voiture-occasion/abarth/500/1253076759A1KVVOAB500",
        "https://www.paruvendu.fr/a/voiture-occasion/abarth/500/1253077402A1KVVOAB500",
        "https://www.paruvendu.fr/a/voiture-occasion/abarth/500/1253076402A1KVVOAB500",
        "https://www.paruvendu.fr/a/voiture-occasion/abarth/500/1253075635A1KVVOAB500",
        "https://www.paruvendu.fr/a/voiture-occasion/abarth/500/1253075879A1KVVOAB500",
        "https://www.paruvendu.fr/a/voiture-occasion/abarth/500/1253073894A1KVVOAB500",
        "https://www.paruvendu.fr/a/voiture-occasion/abarth/500/1253459821A1KVVOAB500",
        "https://www.paruvendu.fr/a/voiture-occasion/abarth/500/1253442003A1KVVOAB500",
        "https://www.paruvendu.fr/a/voiture-occasion/abarth/500/1253409894A1KVVOAB500",
        "https://www.paruvendu.fr/a/voiture-occasion/abarth/500/1253365976A1KVVOAB500",
        "https://www.paruvendu.fr/a/voiture-occasion/abarth/500/1253338680A1KVVOAB500",
        "https://www.paruvendu.fr/a/voiture-occasion/abarth/500/1253309197A1KVVOAB500",
        "https://www.paruvendu.fr/a/voiture-occasion/abarth/500/1253309196A1KVVOAB500",
        "https://www.paruvendu.fr/a/voiture-occasion/abarth/500/1253484039A1KVVOAB500",
        "https://www.paruvendu.fr/a/voiture-occasion/abarth/500/1253384193A1KVVOAB500",
        "https://www.paruvendu.fr/a/voiture-occasion/abarth/500/1253407836A1KVVOAB500",
        "https://www.paruvendu.fr/a/voiture-occasion/abarth/500/1253486623A1KVVOAB500",
        "https://www.paruvendu.fr/a/voiture-occasion/abarth/500/1253473207A1KVVOAB500",
        "https://www.paruvendu.fr/a/voiture-occasion/abarth/500/1253471641A1KVVOAB500",
        "https://www.paruvendu.fr/a/voiture-occasion/abarth/500/1253471642A1KVVOAB500",
        "https://www.paruvendu.fr/a/voiture-occasion/abarth/500/1253471643A1KVVOAB500",
        "https://www.paruvendu.fr/a/voiture-occasion/abarth/500/1253471301A1KVVOAB500",
        "https://www.paruvendu.fr/a/voiture-occasion/abarth/500/1253471299A1KVVOAB500",
        "https://www.paruvendu.fr/a/voiture-occasion/abarth/500/1253471300A1KVVOAB500",
        "https://www.paruvendu.fr/a/voiture-occasion/abarth/500/1253559107A1KVVOAB500",
        "https://www.paruvendu.fr/a/voiture-occasion/abarth/abarth-124-spider/1253619966A1KVVOAB124",
        "https://www.paruvendu.fr/a/voiture-occasion/abarth/500/1253599869A1KVVOAB500",
        "https://www.paruvendu.fr/a/voiture-occasion/abarth/500/1253577503A1KVVOAB500",
        "https://www.paruvendu.fr/a/voiture-occasion/abarth/500/1253571310A1KVVOAB500",
        "https://www.paruvendu.fr/a/voiture-occasion/abarth/500/1253559145A1KVVOAB500",
        "https://www.paruvendu.fr/a/voiture-occasion/abarth/500/1253559144A1KVVOAB500",
        "https://www.paruvendu.fr/a/voiture-occasion/abarth/500/1253559112A1KVVOAB500",
        "https://www.paruvendu.fr/a/voiture-occasion/abarth/500/1253530258A1KVVOAB500",
        "https://www.paruvendu.fr/a/voiture-occasion/abarth/500/1253530229A1KVVOAB500",
        "https://www.paruvendu.fr/a/voiture-occasion/abarth/500/1253596543A1KVVOAB500",
        "https://www.paruvendu.fr/a/voiture-occasion/abarth/500/1253516240A1KVVOAB500",
        "https://www.paruvendu.fr/a/voiture-occasion/abarth/500/1253514433A1KVVOAB500",
        "https://www.paruvendu.fr/a/voiture-occasion/abarth/500/1253513200A1KVVOAB500",
        "https://www.paruvendu.fr/a/voiture-occasion/abarth/abarth-124-spider/1253510424A1KVVOAB124",
        "https://www.paruvendu.fr/a/voiture-occasion/abarth/500/1253506408A1KVVOAB500",
        "https://www.paruvendu.fr/a/voiture-occasion/abarth/500/1253559301A1KVVOAB500",
        "https://www.paruvendu.fr/a/voiture-occasion/abarth/500/1253559113A1KVVOAB500",
        "https://www.paruvendu.fr/a/voiture-occasion/abarth/500/1253559111A1KVVOAB500",
        "https://www.paruvendu.fr/a/voiture-occasion/abarth/500/1253559079A1KVVOAB500",
        "https://www.paruvendu.fr/a/voiture-occasion/abarth/500/1253559080A1KVVOAB500",
        "https://www.paruvendu.fr/a/voiture-occasion/abarth/500/1253500118A1KVVOAB500",
        "https://www.paruvendu.fr/a/voiture-occasion/abarth/500/1253500116A1KVVOAB500",
        "https://www.paruvendu.fr/a/voiture-occasion/abarth/500/1253500117A1KVVOAB500",
        "https://www.paruvendu.fr/a/voiture-occasion/abarth/500/1253572911A1KVVOAB500",
        "https://www.paruvendu.fr/a/voiture-occasion/abarth/500/1253572712A1KVVOAB500",
        "https://www.paruvendu.fr/a/voiture-occasion/abarth/500/1253572453A1KVVOAB500",
        "https://www.paruvendu.fr/a/voiture-occasion/abarth/500/1253572262A1KVVOAB500",
        "https://www.paruvendu.fr/a/voiture-occasion/abarth/500/1253572043A1KVVOAB500",
        "https://www.paruvendu.fr/a/voiture-occasion/abarth/500/1253571747A1KVVOAB500",
        "https://www.paruvendu.fr/a/voiture-occasion/abarth/500/1253571524A1KVVOAB500",
        "https://www.paruvendu.fr/a/voiture-occasion/abarth/500/1253571086A1KVVOAB500",
        "https://www.paruvendu.fr/a/voiture-occasion/abarth/500/1253570872A1KVVOAB500",
        "https://www.paruvendu.fr/a/voiture-occasion/abarth/500/1253570655A1KVVOAB500",
        "https://www.paruvendu.fr/a/voiture-occasion/abarth/500/1253570463A1KVVOAB500",
        "https://www.paruvendu.fr/a/voiture-occasion/abarth/500/1253570031A1KVVOAB500",
        "https://www.paruvendu.fr/a/voiture-occasion/abarth/500/1253569707A1KVVOAB500",
        "https://www.paruvendu.fr/a/voiture-occasion/abarth/500/1253569505A1KVVOAB500",
        "https://www.paruvendu.fr/a/voiture-occasion/abarth/500/1253569311A1KVVOAB500",
        "https://www.paruvendu.fr/a/voiture-occasion/abarth/500/1253569093A1KVVOAB500",
        "https://www.paruvendu.fr/a/voiture-occasion/abarth/500/1253568879A1KVVOAB500",
        "https://www.paruvendu.fr/a/voiture-occasion/abarth/500/1253568630A1KVVOAB500",
        "https://www.paruvendu.fr/a/voiture-occasion/abarth/500/1253568405A1KVVOAB500",
        "https://www.paruvendu.fr/a/voiture-occasion/abarth/500/1253568167A1KVVOAB500",
        "https://www.paruvendu.fr/a/voiture-occasion/abarth/500/1253567994A1KVVOAB500",
        "https://www.paruvendu.fr/a/voiture-occasion/abarth/500/1253567824A1KVVOAB500",
        "https://www.paruvendu.fr/a/voiture-occasion/abarth/500/1253567644A1KVVOAB500",
        "https://www.paruvendu.fr/a/voiture-occasion/abarth/500/1253567485A1KVVOAB500",
        "https://www.paruvendu.fr/a/voiture-occasion/abarth/500/1253567320A1KVVOAB500",
        "https://www.paruvendu.fr/a/voiture-occasion/abarth/500/1253567151A1KVVOAB500",
        "https://www.paruvendu.fr/a/voiture-occasion/abarth/500/1253566972A1KVVOAB500",
        "https://www.paruvendu.fr/a/voiture-occasion/abarth/500/1253566806A1KVVOAB500",
        "https://www.paruvendu.fr/a/voiture-occasion/abarth/500/1253566642A1KVVOAB500",
        "https://www.paruvendu.fr/a/voiture-occasion/abarth/500/1253507738A1KVVOAB500",
        "https://www.paruvendu.fr/a/voiture-occasion/abarth/500/1253507653A1KVVOAB500",
        "https://www.paruvendu.fr/a/voiture-occasion/abarth/500/1253507573A1KVVOAB500",
        "https://www.paruvendu.fr/a/voiture-occasion/abarth/500/1253663168A1KVVOAB500",
        "https://www.paruvendu.fr/a/voiture-occasion/abarth/500/1253507469A1KVVOAB500",
        "https://www.paruvendu.fr/a/voiture-occasion/abarth/500/1253507340A1KVVOAB500",
        "https://www.paruvendu.fr/a/voiture-occasion/abarth/500/1253507261A1KVVOAB500",
        "https://www.paruvendu.fr/a/voiture-occasion/abarth/500/1253507175A1KVVOAB500",
        "https://www.paruvendu.fr/a/voiture-occasion/abarth/500/1253507096A1KVVOAB500",
        "https://www.paruvendu.fr/a/voiture-occasion/abarth/500/1253507013A1KVVOAB500",
        "https://www.paruvendu.fr/a/voiture-occasion/abarth/500/1253506927A1KVVOAB500",
        "https://www.paruvendu.fr/a/voiture-occasion/abarth/500/1253506833A1KVVOAB500",
        "https://www.paruvendu.fr/a/voiture-occasion/abarth/500/1253506742A1KVVOAB500",
        "https://www.paruvendu.fr/a/voiture-occasion/abarth/500/1253506665A1KVVOAB500",
        "https://www.paruvendu.fr/a/voiture-occasion/abarth/500/1253506585A1KVVOAB500",
        "https://www.paruvendu.fr/a/voiture-occasion/abarth/500/1253506506A1KVVOAB500",
        "https://www.paruvendu.fr/a/voiture-occasion/abarth/500/1253506317A1KVVOAB500",
        "https://www.paruvendu.fr/a/voiture-occasion/abarth/500/1253506226A1KVVOAB500",
        "https://www.paruvendu.fr/a/voiture-occasion/abarth/500/1253506146A1KVVOAB500",
        "https://www.paruvendu.fr/a/voiture-occasion/abarth/500/1253506059A1KVVOAB500",
        "https://www.paruvendu.fr/a/voiture-occasion/abarth/500/1253505964A1KVVOAB500",
        "https://www.paruvendu.fr/a/voiture-occasion/abarth/500/1253505884A1KVVOAB500",
        "https://www.paruvendu.fr/a/voiture-occasion/abarth/500/1253505808A1KVVOAB500",
        "https://www.paruvendu.fr/a/voiture-occasion/abarth/500/1253505731A1KVVOAB500",
        "https://www.paruvendu.fr/a/voiture-occasion/abarth/500/1253505644A1KVVOAB500",
        "https://www.paruvendu.fr/a/voiture-occasion/abarth/500/1253505549A1KVVOAB500",
        "https://www.paruvendu.fr/a/voiture-occasion/abarth/500/1253505475A1KVVOAB500",
        "https://www.paruvendu.fr/a/voiture-occasion/abarth/500/1253505399A1KVVOAB500",
        "https://www.paruvendu.fr/a/voiture-occasion/abarth/500/1253505322A1KVVOAB500",
        "https://www.paruvendu.fr/a/voiture-occasion/abarth/500/1253505235A1KVVOAB500",
        "https://www.paruvendu.fr/a/voiture-occasion/abarth/500/1253730454A1KVVOAB500",
        "https://www.paruvendu.fr/a/voiture-occasion/abarth/500/1253724409A1KVVOAB500",
        "https://www.paruvendu.fr/a/voiture-occasion/abarth/500/1253720017A1KVVOAB500",
        "https://www.paruvendu.fr/a/voiture-occasion/abarth/500/1253720014A1KVVOAB500",
        "https://www.paruvendu.fr/a/voiture-occasion/abarth/500/1253707332A1KVVOAB500",
        "https://www.paruvendu.fr/a/voiture-occasion/abarth/500/1253678854A1KVVOAB500",
        "https://www.paruvendu.fr/a/voiture-occasion/abarth/500/1253670573A1KVVOAB500",
        "https://www.paruvendu.fr/a/voiture-occasion/abarth/500/1253670572A1KVVOAB500",
        "https://www.paruvendu.fr/a/voiture-occasion/abarth/500/1253677866A1KVVOAB500"
    ]
}